;Format of textures:
;TextureName	Width	Height
;*	PatchName	Xoffset	Yoffset
AASHITTY    		64	64
*	BODIES      	0	0
ASHWALL2    		64	128
*	RW22_1      	0	0
ASHWALL3    		64	128
*	RW22_2      	0	0
ASHWALL4    		64	128
*	RW22_3      	0	0
ASHWALL6    		64	128
*	RW27_2      	0	0
ASHWALL7    		64	128
*	RW27_3      	0	0
BFALL1      		64	128
*	BFALL1      	0	0
BFALL2      		64	128
*	BFALL2      	0	0
BFALL3      		64	128
*	BFALL3      	0	0
BFALL4      		64	128
*	BFALL4      	0	0
BIGBRIK1    		64	128
*	RW23_3      	0	0
BIGBRIK2    		64	128
*	RW23_4      	0	0
BIGBRIK3    		64	128
*	RW38_4      	0	0
BIGDOOR1    		128	96
*	W13_1       	0	0
*	W13_1       	0	24
*	W13_1       	64	0
*	W13_1       	64	24
*	DOOR2_1     	16	0
BIGDOOR2    		128	128
*	DOOR2_4     	0	0
BIGDOOR3    		128	128
*	DOOR9_2     	0	0
BIGDOOR4    		128	128
*	DOOR9_1     	0	0
BIGDOOR5    		128	128
*	WALL40_1    	0	0
*	WALL42_3    	0	0
*	WALL42_3    	51	0
*	WALL42_3    	104	0
BIGDOOR6    		128	112
*	DOOR11_1    	-48	0
*	DOOR11_1    	32	0
*	DOOR11_1    	5	0
BIGDOOR7    		128	128
*	W105_1      	123	0
*	W105_1      	-5	0
BLAKWAL1    		64	128
*	RW34_1      	0	0
BLAKWAL2    		64	128
*	RW34_2      	0	0
BLODRIP1    		32	128
*	RP2_1       	0	0
BLODRIP2    		32	128
*	RP2_2       	0	0
BLODRIP3    		32	128
*	RP2_3       	0	0
BLODRIP4    		32	128
*	RP2_4       	0	0
BRICK1      		64	128
*	RW1_3       	0	0
BRICK10     		64	128
*	RW41_1      	0	0
BRICK11     		64	128
*	RW41_3      	0	0
BRICK12     		64	128
*	RW41_4      	0	0
BRICK2      		64	128
*	RW1_4       	0	0
BRICK3      		64	128
*	RW5_1       	0	0
BRICK4      		64	128
*	RW5_2       	0	0
BRICK5      		128	128
*	RW5_3       	0	0
*	RW5_4       	64	0
BRICK6      		64	128
*	RW24_1      	0	0
BRICK7      		64	128
*	RW24_2      	0	0
BRICK8      		64	128
*	RW24_3      	0	0
BRICK9      		64	128
*	RW24_4      	0	0
BRICKLIT    		64	128
*	RW12_3      	0	0
BRNPOIS     		128	128
*	WALL62_2    	0	0
*	WALL62_2    	64	0
*	PS20A0      	0	60
BRNSMAL1    		64	64
*	W111_2      	0	0
BRNSMAL2    		64	64
*	W111_3      	0	0
BRNSMALC    		64	64
*	W112_1      	0	0
BRNSMALL    		32	64
*	W112_3      	0	0
BRNSMALR    		32	64
*	W112_2      	0	0
BRONZE1     		64	128
*	RW10_1      	0	0
BRONZE2     		64	128
*	RW10_2      	0	0
BRONZE3     		64	128
*	RW10_3      	0	0
BRONZE4     		64	128
*	RW38_3      	0	0
BROVINE2    		256	128
*	WALL62_2    	64	0
*	WALL62_2    	128	0
*	WALL62_2    	192	0
*	WALL62_2    	0	0
*	W106_1      	0	0
BROWN1      		128	128
*	WALL02_2    	0	56
*	WALL02_1    	64	56
*	WALL02_2    	0	0
*	WALL02_1    	64	0
*	WALL02_3    	64	56
*	WALL02_3    	64	0
BROWN144    		128	128
*	WALL00_5    	0	0
*	WALL00_6    	16	0
*	WALL00_7    	32	0
*	WALL00_8    	48	0
*	WALL00_6    	64	0
*	WALL00_6    	80	0
*	WALL00_7    	96	0
*	WALL00_7    	112	0
BROWN96     		128	128
*	WALL62_1    	0	0
BROWNGRN    		64	128
*	WALL62_2    	0	0
BROWNHUG    		64	128
*	WALL04_7    	32	0
*	WALL04_2    	0	0
*	WALL04_3    	16	0
*	WALL04_2    	48	0
*	WALL04_4    	0	64
*	WALL04_5    	16	64
*	WALL04_7    	32	64
*	WALL04_3    	48	64
BROWNPIP    		128	128
*	TP2_1       	0	0
*	STEP07      	0	64
*	STEP07      	32	64
*	STEP07      	64	64
*	STEP07      	96	64
*	WALL05_2    	0	72
*	WALL05_2    	64	72
*	STEP07      	0	120
*	STEP07      	32	120
*	STEP07      	64	120
*	STEP07      	96	120
*	STEP07      	0	0
BRWINDOW    		64	128
*	RW6_1       	0	0
BSTONE1     		64	128
*	RW1_1       	0	0
BSTONE2     		64	128
*	RW1_2       	0	0
BSTONE3     		64	128
*	RW12_2      	0	0
CEMENT1     		128	128
*	WALL52_1    	0	0
CEMENT2     		128	128
*	WALL53_1    	0	0
CEMENT3     		128	128
*	WALL54_1    	0	0
CEMENT4     		128	128
*	WALL55_1    	0	0
CEMENT5     		128	128
*	WALL52_2    	0	0
CEMENT6     		128	128
*	WALL54_2    	0	0
CEMENT7     		64	128
*	RW7_1       	0	0
CEMENT8     		64	128
*	RW11_3      	0	0
CEMENT9     		64	128
*	RW28_1      	0	0
COMPBLUE    		64	128
*	COMP03_1    	0	0
*	COMP03_2    	0	64
COMPSPAN    		32	128
*	COMP03_4    	0	0
*	COMP03_4    	0	64
COMPSTA1    		128	128
*	AG128_2     	0	70
*	AG128_2     	64	70
*	TOMW2_1     	0	0
COMPSTA2    		128	128
*	AG128_2     	0	70
*	AG128_2     	64	70
*	TOMW2_2     	0	0
COMPTALL    		256	128
*	COMP03_5    	192	0
*	COMP03_8    	0	0
*	COMP03_8    	160	0
*	COMP04_1    	192	64
*	COMP04_2    	128	64
*	COMP04_5    	32	0
*	COMP04_6    	0	64
*	COMP04_7    	64	64
*	COMP04_8    	96	0
COMPWERD    		64	128
*	COMP04_6    	0	0
*	COMP04_6    	0	64
CRACKLE2    		64	128
*	RW44_2      	0	0
CRACKLE4    		64	128
*	RW44_4      	0	0
CRATE1      		64	128
*	BCRATEL1    	0	0
*	BCRATEL1    	0	64
*	BCRATER1    	32	64
*	BCRATER1    	32	0
CRATE2      		64	128
*	GCRATEL1    	0	0
*	GCRATEL1    	0	64
*	GCRATER1    	32	0
*	GCRATER1    	32	64
CRATE3      		64	128
*	GCRATEL1    	0	0
*	GCRATER1    	32	0
*	BCRATEL1    	0	64
*	BCRATER1    	32	64
CRATELIT    		64	128
*	BCRATEL1    	0	64
*	BCRATER1    	32	64
*	SGCRATE2    	0	0
*	SGCRATE2    	32	0
CRATINY     		64	16
*	VGCRATE1    	0	0
*	VGCRATE1    	16	0
*	VGCRATE1    	32	0
*	VGCRATE1    	48	0
CRATWIDE    		128	128
*	GCRATEL1    	0	0
*	GCRATER1    	96	0
*	GCRATEM1    	32	0
*	GCRATEM1    	40	0
*	GCRATEM1    	48	0
*	GCRATEM1    	56	0
*	GCRATEM1    	60	0
*	GCRATEM1    	64	0
*	GCRATEM1    	72	0
*	GCRATEM1    	80	0
*	GCRATEM1    	88	0
*	BCRATEL1    	0	64
*	BCRATER1    	96	64
*	BCRATEM1    	32	64
*	BCRATEM1    	40	64
*	BCRATEM1    	48	64
*	BCRATEM1    	56	64
*	BCRATEM1    	64	64
*	BCRATEM1    	72	64
*	BCRATEM1    	88	64
*	BCRATEM1    	80	64
DBRAIN1     		128	128
*	RWDM11A     	0	0
*	MC1         	0	0
*	MC2         	0	0
*	MC3         	0	0
*	MC4         	0	0
*	MC5         	0	0
*	MC6         	0	0
*	MC7         	0	0
*	MC8         	0	0
*	MC9         	0	0
*	MC10        	0	0
*	MC11        	0	0
*	MC12        	0	0
*	MC13        	0	0
*	MC14        	0	0
*	MC15        	0	0
*	MC16        	0	0
*	MC17        	0	0
*	MC18        	0	0
*	MC19        	0	0
*	MC20        	0	0
DBRAIN2     		64	32
*	RWDM11B     	0	0
DBRAIN3     		64	32
*	RWDM11C     	0	0
DBRAIN4     		64	32
*	RWDM11D     	0	0
DOOR1       		64	72
*	WALL03_1    	0	0
DOOR3       		64	72
*	DOOR2_5     	0	0
DOORBLU     		8	128
*	W46_37      	0	0
*	W46_37      	0	16
*	W46_37      	0	32
*	W46_37      	0	64
*	W46_37      	0	48
*	W46_37      	0	80
*	W46_37      	0	96
*	W46_37      	0	112
DOORBLU2    		16	128
*	W108_2      	0	0
*	W108_2      	0	24
*	W108_2      	0	48
*	W108_2      	0	72
*	W108_2      	0	96
*	STEP07      	0	120
DOORRED     		8	128
*	W46_38      	0	0
*	W46_38      	0	16
*	W46_38      	0	32
*	W46_38      	0	48
*	W46_38      	0	64
*	W46_38      	0	80
*	W46_38      	0	96
*	W46_38      	0	112
DOORRED2    		16	128
*	W108_3      	0	0
*	W108_3      	0	24
*	W108_3      	0	48
*	W108_3      	0	72
*	W108_3      	0	96
*	STEP07      	0	120
DOORSTOP    		8	128
*	TTALL1_2    	0	0
DOORTRAK    		8	128
*	DOORTRAK    	0	0
DOORYEL     		8	128
*	W46_39      	0	112
*	W46_39      	0	96
*	W46_39      	0	80
*	W46_39      	0	64
*	W46_39      	0	48
*	W46_39      	0	32
*	W46_39      	0	16
*	W46_39      	0	0
DOORYEL2    		16	128
*	W108_4      	0	0
*	W108_4      	0	24
*	W108_4      	0	48
*	W108_4      	0	72
*	W108_4      	0	96
*	STEP07      	0	120
EXITDOOR    		128	72
*	DOOR3_6     	0	0
*	DOOR3_4     	64	0
*	DOOR3_5     	88	0
*	T14_5       	112	0
EXITSIGN    		64	16
*	EXIT1       	0	0
*	EXIT2       	32	0
*	EXIT2       	40	0
*	EXIT2       	48	0
*	EXIT2       	56	0
EXITSTON    		64	128
*	W28_8       	0	0
*	W28_8       	0	64
*	EXIT1       	16	22
FIREBLU1    		128	128
*	W65B_1      	0	0
FIREBLU2    		128	128
*	W65B_2      	0	0
FIRELAV2    		128	128
*	W73A_2      	0	0
FIRELAV3    		128	128
*	W73B_1      	0	0
FIRELAVA    		128	128
*	W73A_1      	0	0
FIREMAG1    		128	128
*	W74A_1      	0	0
FIREMAG2    		128	128
*	W74A_2      	0	0
FIREMAG3    		128	128
*	W74B_1      	0	0
FIREWALA    		128	112
*	WALL23_1    	0	0
FIREWALB    		128	112
*	WALL23_2    	0	0
FIREWALL    		128	112
*	WALL22_1    	0	0
GRAY1       		64	128
*	W33_7       	0	0
*	W33_7       	0	64
GRAY2       		64	72
*	W33_7       	0	-8
*	W31_1       	0	56
*	DUCT1       	21	16
GRAY4       		64	128
*	W33_5       	0	0
*	W33_5       	0	64
GRAY5       		64	128
*	W33_7       	0	0
*	W33_7       	0	72
*	W33_8       	0	64
GRAY7       		256	128
*	W33_8       	0	120
*	W33_8       	64	120
*	W33_8       	128	120
*	W33_8       	192	120
*	W32_1       	64	0
*	W32_4       	0	0
*	W32_4       	128	0
*	W32_4       	192	0
*	W32_4       	0	56
*	W32_4       	64	56
*	W32_4       	192	56
*	W32_1       	128	56
GRAYBIG     		128	128
*	WALL00_1    	0	0
*	WALL00_1    	64	0
*	WALL00_2    	80	0
GRAYPOIS    		64	72
*	WALL00_1    	0	0
*	PS18A0      	1	18
GRAYTALL    		128	128
*	WALL00_1    	0	0
*	WALL00_1    	64	0
*	WALL00_3    	80	0
GRAYVINE    		256	128
*	WALL00_1    	192	0
*	WALL00_1    	64	0
*	WALL00_1    	128	0
*	WALL00_1    	0	0
*	W106_1      	0	0
GSTFONT1    		64	128
*	WALL58_1    	0	0
GSTFONT2    		64	128
*	WALL58_2    	0	0
GSTFONT3    		64	128
*	WALL58_3    	0	0
GSTGARG     		64	128
*	WALL30_2    	0	0
GSTLION     		64	128
*	WALL30_4    	0	0
GSTONE1     		256	128
*	WALL48_1    	0	0
*	WALL48_2    	64	0
*	WALL48_3    	128	0
*	WALL48_4    	192	0
GSTONE2     		256	128
*	WALL59_3    	0	0
*	WALL59_2    	64	0
*	WALL59_3    	128	0
*	WALL59_4    	192	0
GSTSATYR    		64	128
*	WALL30_3    	0	0
GSTVINE1    		256	128
*	WALL48_1    	0	0
*	WALL48_2    	64	0
*	WALL48_3    	128	0
*	WALL48_4    	192	0
*	W106_1      	0	0
GSTVINE2    		256	128
*	WALL48_1    	0	0
*	WALL48_2    	64	0
*	WALL48_3    	128	0
*	WALL48_4    	192	0
*	W107_1      	0	0
ICKWALL1    		64	128
*	W32_4       	0	64
*	WALL69_4    	0	0
ICKWALL2    		64	128
*	WALL71_5    	0	0
*	W33_5       	0	64
ICKWALL3    		64	128
*	WALL72_7    	0	0
*	WALL69_9    	0	64
*	W67_2       	32	64
ICKWALL4    		64	128
*	WALL72_5    	0	0
*	WALL72_3    	0	64
ICKWALL5    		64	128
*	WALL70_4    	0	0
*	W32_4       	0	64
ICKWALL7    		64	128
*	WALL70_9    	28	64
*	W67_2       	0	64
*	W67_1       	0	0
LITE3       		32	128
*	WLITA0      	0	0
*	WLITA0      	0	8
*	WLITA0      	0	16
*	WLITA0      	0	24
*	WLITA0      	0	32
*	WLITA0      	0	40
*	WLITA0      	0	48
*	WLITA0      	0	56
*	WLITA0      	0	64
*	WLITA0      	0	72
*	WLITA0      	0	80
*	WLITA0      	0	88
*	WLITA0      	0	96
*	WLITA0      	0	104
*	WLITA0      	0	112
*	WLITA0      	0	120
*	WLITB0      	8	120
*	WLITB0      	8	112
*	WLITB0      	8	104
*	WLITB0      	8	96
*	WLITB0      	8	88
*	WLITB0      	8	80
*	WLITB0      	8	72
*	WLITB0      	8	64
*	WLITB0      	8	56
*	WLITB0      	8	40
*	WLITB0      	8	48
*	WLITB0      	8	32
*	WLITB0      	8	24
*	WLITB0      	8	16
*	WLITB0      	8	8
*	WLITB0      	8	0
*	WLITB0      	16	0
*	WLITB0      	16	8
*	WLITB0      	16	16
*	WLITB0      	16	24
*	WLITB0      	16	32
*	WLITB0      	16	40
*	WLITB0      	16	48
*	WLITB0      	16	56
*	WLITB0      	16	64
*	WLITB0      	16	72
*	WLITB0      	16	80
*	WLITB0      	16	88
*	WLITB0      	16	96
*	WLITB0      	16	104
*	WLITB0      	16	112
*	WLITB0      	16	120
*	WLITC0      	24	0
*	WLITC0      	24	8
*	WLITC0      	24	16
*	WLITC0      	24	24
*	WLITC0      	24	32
*	WLITC0      	24	40
*	WLITC0      	24	48
*	WLITC0      	24	56
*	WLITC0      	24	64
*	WLITC0      	24	72
*	WLITC0      	24	80
*	WLITC0      	24	88
*	WLITC0      	24	96
*	WLITC0      	24	104
*	WLITC0      	24	112
*	WLITC0      	24	120
LITE5       		16	128
*	WLITA0      	0	0
*	WLITA0      	0	8
*	WLITA0      	0	16
*	WLITA0      	0	24
*	WLITA0      	0	32
*	WLITA0      	0	40
*	WLITA0      	0	48
*	WLITA0      	0	56
*	WLITA0      	0	64
*	WLITA0      	0	72
*	WLITA0      	0	80
*	WLITA0      	0	88
*	WLITA0      	0	96
*	WLITA0      	0	104
*	WLITA0      	0	112
*	WLITA0      	0	120
*	WLITC0      	8	120
*	WLITC0      	8	112
*	WLITC0      	8	104
*	WLITC0      	8	96
*	WLITC0      	8	88
*	WLITC0      	8	80
*	WLITC0      	8	72
*	WLITC0      	8	64
*	WLITC0      	8	56
*	WLITC0      	8	48
*	WLITC0      	8	40
*	WLITC0      	8	32
*	WLITC0      	8	16
*	WLITC0      	8	24
*	WLITC0      	8	8
*	WLITC0      	8	0
LITEBLU1    		8	128
*	AGB128_1    	0	0
LITEBLU4    		16	128
*	BLITA0      	0	0
*	BLITA0      	0	8
*	BLITA0      	0	16
*	BLITA0      	0	24
*	BLITA0      	0	32
*	BLITA0      	0	40
*	BLITA0      	0	48
*	BLITA0      	0	56
*	BLITA0      	0	64
*	BLITA0      	0	72
*	BLITA0      	0	80
*	BLITA0      	0	88
*	BLITA0      	0	96
*	BLITA0      	0	104
*	BLITA0      	0	112
*	BLITA0      	0	120
*	BLITC0      	8	120
*	BLITC0      	8	112
*	BLITC0      	8	104
*	BLITC0      	8	96
*	BLITC0      	8	88
*	BLITC0      	8	80
*	BLITC0      	8	72
*	BLITC0      	8	64
*	BLITC0      	8	56
*	BLITC0      	8	48
*	BLITC0      	8	40
*	BLITC0      	8	32
*	BLITC0      	8	24
*	BLITC0      	8	16
*	BLITC0      	8	8
*	BLITC0      	8	0
MARBFAC2    		128	128
*	MWALL4_2    	0	0
MARBFAC3    		128	128
*	MWALL5_1    	0	0
MARBFAC4    		64	128
*	RW7_3       	0	0
MARBFACE    		128	128
*	MWALL4_1    	0	0
MARBGRAY    		64	128
*	RW7_2       	0	0
MARBLE1     		128	128
*	MWALL1_1    	0	0
MARBLE2     		128	128
*	MWALL2_1    	0	0
MARBLE3     		128	128
*	MWALL3_1    	0	0
MARBLOD1    		128	128
*	MWALL1_2    	0	0
METAL       		64	128
*	WALL47_1    	0	0
METAL1      		64	128
*	WALL03_7    	0	0
*	WALL03_7    	0	64
METAL2      		64	128
*	RW33_1      	0	0
METAL3      		64	128
*	RW33_2      	0	0
METAL4      		64	128
*	RW33_3      	0	0
METAL5      		64	128
*	RW33_4      	0	0
METAL6      		64	128
*	RW38_1      	0	0
METAL7      		64	128
*	RW38_2      	0	0
MIDBARS1    		64	128
*	RW43_1      	0	0
MIDBARS3    		64	72
*	RW45_1      	0	0
MIDBRN1     		64	112
*	DOOR12_1    	0	0
MIDBRONZ    		64	128
*	RW10_4      	0	0
MIDGRATE    		128	128
*	M1_1        	0	0
MIDSPACE    		64	128
*	RW47_1      	0	0
MODWALL1    		64	128
*	RW31_1      	0	0
MODWALL2    		64	128
*	RW31_2      	0	0
MODWALL3    		64	128
*	RW31_3      	0	0
MODWALL4    		64	128
*	RW31_4      	0	0
NUKE24      		64	24
*	NUKEDGE     	0	0
NUKEDGE1    		128	128
*	WALL04_7    	96	0
*	WALL04_5    	112	0
*	WALL04_5    	112	32
*	WALL04_5    	96	32
*	NUKEDGE     	64	104
*	WALL04_2    	64	0
*	WALL04_2    	48	0
*	WALL04_2    	48	32
*	WALL04_2    	64	32
*	NUKEDGE     	0	104
*	WALL04_4    	16	32
*	WALL04_5    	32	0
*	WALL04_5    	32	32
*	WALL04_3    	80	32
*	WALL04_3    	80	0
*	WALL04_3    	0	32
*	WALL04_3    	0	0
*	WALL04_4    	16	0
NUKEPOIS    		128	128
*	WALL04_7    	96	0
*	WALL04_5    	112	0
*	WALL04_5    	112	32
*	WALL04_5    	96	32
*	NUKEDGE     	64	104
*	WALL04_2    	64	0
*	WALL04_2    	48	0
*	WALL04_2    	48	32
*	WALL04_2    	64	32
*	NUKEDGE     	0	104
*	WALL04_4    	16	32
*	WALL04_5    	32	0
*	WALL04_5    	32	32
*	WALL04_3    	80	32
*	WALL04_3    	80	0
*	WALL04_3    	0	32
*	WALL04_3    	0	0
*	WALL04_4    	16	0
*	PS20A0      	0	68
PANBLACK    		64	128
*	RW16_1      	0	0
PANBLUE     		64	128
*	RW16_3      	0	0
PANBOOK     		64	128
*	RW21_5      	0	0
PANBORD1    		32	128
*	RW21_1      	0	0
PANBORD2    		16	128
*	RW21_2      	0	0
PANCASE1    		64	128
*	RW21_3      	0	0
PANCASE2    		64	128
*	RW21_4      	0	0
PANEL1      		64	128
*	RW15_1      	0	0
PANEL2      		64	128
*	RW15_2      	0	0
PANEL3      		64	128
*	RW15_3      	0	0
PANEL4      		64	128
*	RW15_4      	0	0
PANEL5      		64	128
*	RW16_4      	0	0
PANEL6      		64	128
*	RW19_1      	0	0
PANEL7      		64	128
*	RW19_2      	0	0
PANEL8      		64	128
*	RW19_3      	0	0
PANEL9      		64	128
*	RW19_4      	0	0
PANRED      		64	128
*	RW16_2      	0	0
PIPE1       		256	128
*	RP1_1       	0	0
*	RP1_2       	128	0
PIPE2       		256	128
*	TP2_1       	0	0
*	TP2_2       	128	0
PIPE4       		256	128
*	TP7_2       	128	0
*	TP7_1       	0	0
PIPE6       		256	128
*	TP3_2       	128	0
*	TP3_1       	0	0
PIPES       		64	128
*	RW28_4      	0	0
PIPEWAL1    		64	128
*	RW28_2      	0	0
PIPEWAL2    		64	128
*	RW36_2      	0	0
PLAT1       		128	128
*	PLAT2_1     	0	0
REDWALL     		128	128
*	WALL78_1    	0	0
ROCK1       		64	128
*	RW30_1      	0	0
ROCK2       		64	128
*	RW30_2      	0	0
ROCK3       		64	128
*	RW30_3      	0	0
ROCK4       		128	128
*	RW35_1      	0	0
ROCK5       		128	128
*	RW35_2      	0	0
ROCKRED1    		128	128
*	WALL64_2    	0	0
ROCKRED2    		128	128
*	W64B_1      	0	0
ROCKRED3    		128	128
*	W64B_2      	0	0
SFALL1      		64	128
*	SFALL1      	0	0
SFALL2      		64	128
*	SFALL2      	0	0
SFALL3      		64	128
*	SFALL3      	0	0
SFALL4      		64	128
*	SFALL4      	0	0
SHAWN1      		128	128
*	W13_1       	0	56
*	W13_1       	64	56
*	W13_1       	64	0
*	W13_1       	0	0
*	CYL1_1      	0	0
SHAWN2      		64	128
*	AG128_1     	0	0
SHAWN3      		64	72
*	T14_3       	0	0
SILVER1     		64	128
*	RW32_1      	0	0
SILVER2     		64	128
*	RW32_2      	0	0
SILVER3     		64	128
*	RW32_3      	0	0
SK_LEFT     		64	128
*	RW48_1      	0	0
SK_RIGHT    		64	128
*	RW48_3      	0	0
SKIN2       		128	128
*	HELL8_2     	64	0
*	HELL8_4     	0	0
SKINCUT     		256	128
*	W102_1      	0	0
*	W102_2      	128	0
SKINEDGE    		128	128
*	HELL6_2     	0	0
*	HELL8_1     	64	0
SKINFACE    		256	128
*	HELL5_1     	0	0
*	HELL5_2     	128	0
SKINLOW     		256	104
*	W92_1       	0	0
*	W92_2       	128	0
SKINMET1    		256	128
*	W98_1       	0	0
*	W98_2       	128	0
SKINMET2    		256	128
*	W99_1       	0	0
*	W99_2       	128	0
SKINSCAB    		256	128
*	W101_1      	0	0
*	W101_2      	128	0
SKINSYMB    		256	128
*	W103_1      	0	0
*	W103_2      	128	0
SKSNAKE1    		64	128
*	SNAK7_1     	0	0
SKSNAKE2    		64	128
*	SNAK8_1     	0	0
SKSPINE1    		128	128
*	SPINE4_1    	0	0
SKSPINE2    		256	96
*	SPINE3_1    	0	0
*	SPINE3_2    	128	0
SKY1        		256	128
*	RSKY1       	0	0
SKY2        		256	128
*	RSKY2       	0	0
SKY3        		256	128
*	RSKY3       	0	0
SLADPOIS    		64	128
*	WLA128_1    	0	0
*	PS20A0      	1	49
SLADSKUL    		64	128
*	WLA128_1    	0	0
*	SW2_2       	21	65
SLADWALL    		64	128
*	WLA128_1    	0	0
SLOPPY1     		64	128
*	RW47_3      	0	0
SLOPPY2     		64	128
*	RW47_4      	0	0
SP_DUDE1    		128	128
*	WALL50_1    	0	0
SP_DUDE2    		128	128
*	WALL50_2    	0	0
SP_DUDE4    		64	128
*	WALL51_2    	0	0
SP_DUDE5    		64	128
*	WALL51_3    	0	0
SP_DUDE7    		128	128
*	BODY_1      	0	0
SP_DUDE8    		128	128
*	BODY_2      	0	0
SP_FACE1    		128	96
*	WALL25_1    	0	0
SP_FACE2    		64	128
*	BODIES      	0	0
SP_HOT1     		256	128
*	WALL49_1    	0	0
*	WALL49_2    	64	0
*	WALL49_3    	128	0
*	WALL49_4    	192	0
SP_ROCK1    		128	128
*	WALL63_1    	0	0
SPACEW2     		64	128
*	RW46_2      	0	0
SPACEW3     		64	128
*	RW46_3      	0	0
SPACEW4     		64	128
*	RW46_4      	0	0
SPCDOOR1    		64	128
*	DOOR15_1    	0	0
SPCDOOR2    		64	128
*	DOOR15_2    	0	0
SPCDOOR3    		64	128
*	DOOR15_3    	0	0
SPCDOOR4    		64	128
*	DOOR15_4    	0	0
STARBR2     		128	128
*	SW16_4      	32	0
*	SW15_4      	0	0
*	SW15_6      	64	0
*	SW16_6      	96	0
STARG1      		64	128
*	SW12_1      	0	0
*	SW12_2      	32	0
STARG2      		128	128
*	SW17_1      	0	0
*	SW17_2      	32	0
*	SW17_3      	64	0
*	SW18_5      	96	0
STARG3      		128	128
*	SW19_3      	64	0
*	SW19_4      	0	0
STARGR1     		64	128
*	SW11_1      	0	0
*	SW11_2      	32	0
STARGR2     		128	128
*	SW15_1      	0	0
*	SW16_2      	32	0
*	SW15_3      	64	0
*	SW16_1      	96	0
STARTAN2    		128	128
*	SW17_6      	64	0
*	SW17_5      	32	0
*	SW18_7      	96	0
*	SW17_4      	0	0
STARTAN3    		128	128
*	SW19_2      	0	0
*	SW19_1      	64	0
STEP1       		32	16
*	STEP04      	0	0
*	STEP05      	0	8
STEP2       		32	16
*	SW11_4      	0	-112
*	STEP03      	0	0
STEP3       		32	16
*	STEP05      	0	8
*	STEP05      	0	0
STEP4       		32	16
*	STEP06      	0	8
*	STEP06      	0	0
STEP5       		32	16
*	STEP09      	0	0
*	STEP08      	0	8
STEP6       		32	16
*	STEP07      	0	0
*	STEP10      	0	8
STEPLAD1    		64	16
*	LADDER16    	0	0
STEPTOP     		128	16
*	RIPW15      	0	0
STONE       		256	128
*	WALL01_1    	0	0
*	WALL01_2    	16	0
*	WALL01_3    	32	0
*	WALL01_4    	48	0
*	WALL01_5    	64	0
*	WALL01_6    	80	0
*	WALL01_7    	96	0
*	WALL01_8    	112	0
*	WALL01_9    	128	0
*	WALL01_A    	144	0
*	WALL01_B    	160	0
*	WALL01_C    	176	0
*	WALL01_3    	192	0
*	WALL01_1    	208	0
*	WALL01_6    	224	0
*	WALL01_A    	240	0
*	WALL01_1    	0	72
*	WALL01_2    	16	72
*	WALL01_3    	32	72
*	WALL01_4    	48	72
*	WALL01_5    	64	72
*	WALL01_6    	80	72
*	WALL01_7    	96	72
*	WALL01_8    	112	72
*	WALL01_9    	128	72
*	WALL01_A    	144	72
*	WALL01_B    	160	72
*	WALL01_C    	176	72
*	WALL01_3    	192	72
*	WALL01_1    	208	72
*	WALL01_6    	224	72
*	WALL01_A    	240	72
*	W33_8       	0	64
*	W33_8       	0	120
*	W33_8       	64	64
*	W33_8       	64	120
*	W33_8       	128	64
*	W33_8       	128	120
*	W33_8       	192	64
*	W33_8       	192	120
STONE2      		128	128
*	W28_5       	0	0
*	W28_5       	64	64
*	W28_8       	0	64
*	W28_8       	64	0
STONE3      		128	128
*	W28_6       	0	64
*	W28_6       	64	0
*	W28_7       	64	64
*	W28_7       	0	0
STONE4      		64	128
*	RW18_1      	0	0
STONE5      		64	128
*	RW18_2      	0	0
STONE6      		64	128
*	RW18_3      	0	0
STONE7      		64	128
*	RW18_4      	0	0
STUCCO      		64	128
*	RW8_1       	0	0
STUCCO1     		64	128
*	RW8_2       	0	0
STUCCO2     		64	128
*	RW8_3       	0	0
STUCCO3     		64	128
*	RW8_4       	0	0
SUPPORT2    		64	128
*	SUPPORT2    	0	0
*	SUPPORT2    	40	0
*	SUPPORT2    	20	0
*	SUPPORT2    	0	72
*	SUPPORT2    	20	72
*	SUPPORT2    	40	72
SUPPORT3    		64	128
*	WALL42_3    	20	0
*	WALL42_3    	0	0
*	WALL42_3    	40	0
SW1BLUE     		64	128
*	COMP03_1    	0	0
*	COMP03_2    	0	64
*	SW2_7       	14	66
SW1BRCOM    		128	128
*	WALL62_1    	0	0
*	SW1S0       	48	72
SW1BRIK     		64	128
*	RW23_4      	0	0
*	SW1S0       	16	72
SW1BRN1     		64	128
*	WALL02_2    	0	56
*	WALL02_2    	0	0
*	SW3S0       	15	75
SW1BRN2     		64	128
*	WALL02_2    	0	56
*	WALL02_2    	0	0
*	SW4S0       	20	79
SW1BRNGN    		64	128
*	WALL62_2    	0	0
*	SW4S0       	20	80
SW1BROWN    		128	128
*	WALL62_1    	0	0
*	SW3S0       	48	72
SW1CMT      		64	128
*	WALL54_1    	-42	0
*	SW3S0       	16	72
SW1COMM     		64	72
*	W13_1       	0	0
*	SW1S0       	15	18
SW1COMP     		64	128
*	COMP04_5    	0	0
*	COMP03_4    	32	64
*	COMP03_4    	0	64
*	SW2S0       	16	72
SW1DIRT     		64	128
*	WALL00_6    	16	0
*	WALL00_7    	32	0
*	WALL00_7    	48	0
*	WALL00_7    	0	0
*	SW1S0       	16	20
SW1EXIT     		32	72
*	W33_8       	0	64
*	WALL69_9    	-2	0
*	SW2S0       	0	16
SW1GARG     		64	128
*	WALL47_2    	0	0
*	WALL42_6    	12	62
SW1GRAY     		64	128
*	W31_1       	0	64
*	W31_1       	0	0
*	SW2S0       	16	70
SW1GRAY1    		64	128
*	W31_1       	0	64
*	W31_1       	0	0
*	SW4S0       	19	79
SW1GSTON    		64	128
*	WALL48_2    	0	0
*	SW2_7       	14	67
SW1HOT      		64	128
*	WALL49_1    	0	0
*	SW2_7       	13	66
SW1LION     		64	128
*	WALL47_2    	0	0
*	WALL42_5    	12	62
SW1MARB     		64	128
*	MWALL1_1    	0	0
*	SW2_7       	13	55
SW1MET2     		64	128
*	RW33_1      	0	0
*	SW1S0       	16	19
SW1METAL    		64	128
*	WALL03_7    	0	64
*	WALL03_7    	0	0
*	SW4S0       	20	68
SW1MOD1     		64	128
*	RW31_1      	0	0
*	SW4S0       	20	80
SW1PANEL    		64	128
*	RW21_4      	0	0
*	SW2_7       	14	64
SW1PIPE     		128	128
*	TP2_2       	0	0
*	SW3S0       	48	76
SW1ROCK     		64	128
*	RW30_1      	0	0
*	SW2_7       	14	66
SW1SATYR    		64	128
*	WALL47_2    	0	0
*	WALL42_1    	12	60
SW1SKIN     		64	128
*	HELL6_3     	0	0
*	SW2_5       	0	59
SW1SKULL    		64	128
*	RW48_4      	0	0
SW1SLAD     		64	128
*	WLA128_1    	0	0
*	WARNB0      	24	73
SW1STARG    		128	128
*	SW19_4      	0	0
*	SW19_3      	64	0
*	SW3S0       	48	76
SW1STON1    		64	128
*	W28_8       	0	64
*	W28_8       	0	0
*	SW1S0       	16	78
SW1STON2    		64	128
*	W28_5       	0	0
*	W28_8       	0	64
*	WARNB0      	24	73
SW1STON6    		64	128
*	RW18_3      	0	0
*	SW2S0       	16	72
SW1STONE    		64	128
*	WALL01_1    	0	0
*	WALL01_2    	16	0
*	WALL01_3    	32	0
*	WALL01_4    	48	0
*	WALL01_1    	0	72
*	WALL01_2    	16	72
*	WALL01_3    	32	72
*	WALL01_4    	48	72
*	W33_8       	0	64
*	W33_8       	0	120
*	SW1S0       	16	72
SW1STRTN    		64	128
*	SW12_4      	0	0
*	SW12_5      	32	0
*	SW1S0       	16	72
SW1TEK      		64	128
*	RW37_2      	0	0
*	SW4S0       	20	80
SW1VINE     		64	128
*	WALL00_1    	0	0
*	W106_1      	0	0
*	SW4S0       	20	84
SW1WDMET    		64	128
*	RW26_1      	0	0
*	EXIT2       	16	48
*	EXIT2       	24	48
*	EXIT2       	32	48
*	EXIT2       	40	48
*	EXIT2       	40	64
*	EXIT2       	32	64
*	EXIT2       	24	64
*	EXIT2       	16	64
*	W108_2      	24	52
SW1WOOD     		64	128
*	WALL40_2    	-64	0
*	SW2_7       	14	66
SW1ZIM      		64	128
*	RW20_1      	0	0
*	SW2_7       	16	65
SW2BLUE     		64	128
*	COMP03_1    	0	0
*	COMP03_2    	0	64
*	SW2_8       	14	66
SW2BRCOM    		128	128
*	WALL62_1    	0	0
*	SW1S1       	48	72
SW2BRIK     		64	128
*	RW23_4      	0	0
*	SW1S1       	16	72
SW2BRN1     		64	128
*	WALL02_2    	0	56
*	WALL02_2    	0	0
*	SW3S1       	15	75
SW2BRN2     		64	128
*	WALL02_2    	0	56
*	WALL02_2    	0	0
*	SW4S1       	20	79
SW2BRNGN    		64	128
*	WALL62_2    	0	0
*	SW4S1       	20	80
SW2BROWN    		128	128
*	WALL62_1    	0	0
*	SW3S1       	48	72
SW2CMT      		64	128
*	WALL54_1    	-42	0
*	SW3S1       	16	72
SW2COMM     		64	72
*	W13_1       	0	0
*	SW1S1       	15	18
SW2COMP     		64	128
*	COMP04_5    	0	0
*	COMP03_4    	32	64
*	COMP03_4    	0	64
*	SW2S1       	16	72
SW2DIRT     		64	128
*	WALL00_6    	16	0
*	WALL00_7    	32	0
*	WALL00_7    	48	0
*	WALL00_7    	0	0
*	SW1S1       	16	20
SW2EXIT     		32	72
*	W33_8       	0	64
*	WALL69_9    	-2	0
*	SW2S1       	0	16
SW2GARG     		64	128
*	WALL47_2    	0	0
*	WALL47_5    	12	62
SW2GRAY     		64	128
*	W31_1       	0	64
*	W31_1       	0	0
*	SW2S1       	16	70
SW2GRAY1    		64	128
*	W31_1       	0	64
*	W31_1       	0	0
*	SW4S1       	19	79
SW2GSTON    		64	128
*	WALL48_2    	0	0
*	SW2_8       	14	67
SW2HOT      		64	128
*	WALL49_1    	0	0
*	SW2_8       	13	66
SW2LION     		64	128
*	WALL47_2    	0	0
*	WALL47_4    	12	62
SW2MARB     		64	128
*	MWALL1_1    	0	0
*	SW2_8       	13	55
SW2MET2     		64	128
*	RW33_1      	0	0
*	SW1S1       	16	19
SW2METAL    		64	128
*	WALL03_7    	0	64
*	WALL03_7    	0	0
*	SW4S1       	20	68
SW2MOD1     		64	128
*	RW31_1      	0	0
*	SW4S1       	20	80
SW2PANEL    		64	128
*	RW21_4      	0	0
*	SW2_8       	14	64
SW2PIPE     		128	128
*	TP2_2       	0	0
*	SW3S1       	48	76
SW2ROCK     		64	128
*	RW30_1      	0	0
*	SW2_8       	14	66
SW2SATYR    		64	128
*	WALL47_2    	0	0
*	WALL47_3    	12	60
SW2SKIN     		64	128
*	HELL6_3     	0	0
*	SW2_6       	0	59
SW2SKULL    		64	128
*	RW48_2      	0	0
SW2SLAD     		64	128
*	WLA128_1    	0	0
*	WARNA0      	24	73
SW2STARG    		128	128
*	SW19_4      	0	0
*	SW19_3      	64	0
*	SW3S1       	48	76
SW2STON1    		64	128
*	W28_8       	0	64
*	W28_8       	0	0
*	SW1S1       	16	78
SW2STON2    		64	128
*	W28_5       	0	0
*	W28_8       	0	64
*	WARNA0      	24	73
SW2STON6    		64	128
*	RW18_3      	0	0
*	SW2S1       	16	72
SW2STONE    		64	128
*	WALL01_1    	0	0
*	WALL01_2    	16	0
*	WALL01_3    	32	0
*	WALL01_4    	48	0
*	WALL01_1    	0	72
*	WALL01_2    	16	72
*	WALL01_3    	32	72
*	WALL01_4    	48	72
*	W33_8       	0	64
*	W33_8       	0	120
*	SW1S1       	16	72
SW2STRTN    		64	128
*	SW12_4      	0	0
*	SW12_5      	32	0
*	SW1S1       	16	72
SW2TEK      		64	128
*	RW37_2      	0	0
*	SW4S1       	20	80
SW2VINE     		64	128
*	WALL00_1    	0	0
*	W106_1      	0	0
*	SW4S1       	20	84
SW2WDMET    		64	128
*	RW26_1      	0	0
*	EXIT2       	16	48
*	EXIT2       	24	48
*	EXIT2       	32	48
*	EXIT2       	40	48
*	EXIT2       	40	64
*	EXIT2       	32	64
*	EXIT2       	24	64
*	EXIT2       	16	64
*	W108_3      	24	52
SW2WOOD     		64	128
*	WALL40_2    	-64	0
*	SW2_8       	14	66
SW2ZIM      		64	128
*	RW20_1      	0	0
*	SW2_8       	16	65
TANROCK2    		64	128
*	RW11_2      	0	0
TANROCK3    		64	128
*	RW12_1      	0	0
TANROCK4    		64	128
*	RW12_4      	0	0
TANROCK5    		64	128
*	RW14_1      	0	0
TANROCK7    		64	128
*	RW23_2      	0	0
TANROCK8    		64	128
*	RW28_3      	0	0
TEKBRON1    		128	128
*	RW36_1      	0	0
*	RW36_3      	64	0
TEKBRON2    		64	128
*	RW39_2      	0	0
TEKGREN1    		64	128
*	RW37_1      	0	0
TEKGREN2    		64	128
*	RW37_2      	0	0
TEKGREN3    		64	128
*	RW37_3      	0	0
TEKGREN4    		64	128
*	RW37_4      	0	0
TEKGREN5    		64	128
*	RW39_1      	0	0
TEKLITE     		64	128
*	RW43_3      	0	0
TEKLITE2    		64	128
*	RW43_4      	0	0
TEKWALL1    		128	128
*	W17_1       	0	-27
*	W17_1       	0	16
TEKWALL4    		128	128
*	W94_1       	0	0
TEKWALL6    		256	128
*	RW25_1      	0	0
*	RW25_2      	128	0
*	RW25_3      	64	0
*	RW25_4      	192	0
WOOD1       		256	128
*	WALL40_1    	128	0
*	WALL40_2    	0	0
WOOD10      		128	128
*	RW13_1      	0	0
WOOD12      		64	128
*	RW41_2      	0	0
WOOD3       		256	128
*	WALL97_1    	0	0
*	WALL97_2    	64	0
*	WALL97_2    	192	0
*	WALL97_3    	128	0
WOOD4       		64	128
*	WALL97_2    	0	0
*	SW2_1       	26	76
*	SW2_2       	26	18
WOOD5       		256	128
*	W96_2       	128	0
*	W96_1       	0	0
WOOD6       		64	128
*	RW9_1       	0	0
WOOD7       		64	128
*	RW9_2       	0	0
WOOD8       		64	128
*	RW9_3       	0	0
WOOD9       		64	128
*	RW9_4       	0	0
WOODGARG    		64	128
*	WALL40_1    	0	0
*	SW2_4       	6	63
WOODMET1    		64	128
*	RW26_1      	0	0
WOODMET2    		64	128
*	RW26_2      	0	0
WOODMET3    		64	128
*	RW26_3      	0	0
WOODMET4    		64	128
*	RW26_4      	0	0
WOODVERT    		64	128
*	RW23_1      	0	0
ZDOORB1     		128	128
*	WOLF18      	0	0
ZDOORF1     		128	128
*	WOLF10      	0	0
ZELDOOR     		128	128
*	WOLF11      	0	0
ZIMMER1     		64	128
*	RW20_1      	0	0
ZIMMER2     		64	128
*	RW20_2      	0	0
ZIMMER3     		64	128
*	RW20_3      	0	0
ZIMMER4     		64	128
*	RW20_4      	0	0
ZIMMER5     		64	128
*	RW42_1      	0	0
ZIMMER7     		64	128
*	RW42_3      	0	0
ZIMMER8     		64	128
*	RW42_4      	0	0
ZZWOLF1     		128	128
*	WOLF1       	0	0
ZZWOLF10    		128	128
*	WOLF12      	0	0
ZZWOLF11    		128	128
*	WOLF13      	0	0
ZZWOLF12    		128	128
*	WOLF14      	0	0
ZZWOLF13    		128	128
*	WOLF17      	0	0
ZZWOLF2     		128	128
*	WOLF2       	0	0
ZZWOLF3     		128	128
*	WOLF3       	0	0
ZZWOLF4     		128	128
*	WOLF4       	0	0
ZZWOLF5     		128	128
*	WOLF5       	0	0
ZZWOLF6     		128	128
*	WOLF6       	0	0
ZZWOLF7     		128	128
*	WOLF7       	0	0
ZZWOLF9     		128	128
*	WOLF9       	0	0
ZZZFACE1    		256	128
*	RWDMON4     	0	0
ZZZFACE2    		256	128
*	RWDMON5     	0	0
ZZZFACE3    		256	128
*	RWDMON3     	0	0
ZZZFACE4    		256	128
*	RWDMON2     	0	0
ZZZFACE5    		256	128
*	RWDMON1     	0	0
ZZZFACE6    		256	128
*	RWDMON7     	0	0
ZZZFACE7    		256	128
*	RWDMON8     	0	0
ZZZFACE8    		256	128
*	RWDMON9     	0	0
ZZZFACE9    		256	128
*	RWDMON10    	0	0
AASTINKY    		32	72
*	WALL00_3    	0	0
*	WALL00_3    	12	0
*	WALL00_3    	24	0
GLASS2B     		64	96
*	GLASS2B     	0	0
GLASS1B     		64	96
*	GLASS1B     	0	0
GLASS2      		64	96
*	GLASS2      	0	0
GLASS1      		64	96
*	GLASS1      	0	0
BLODGR1     		32	128
*	TP5_1       	0	0
BLODGR2     		32	128
*	TP5_2       	0	0
BLODGR3     		32	128
*	TP5_3       	0	0
BLODGR4     		32	128
*	TP5_4       	0	0
BROVINE     		256	128
*	WALL02_2    	0	56
*	WALL02_2    	0	0
*	WALL02_2    	192	56
*	WALL02_2    	192	0
*	WALL02_1    	64	56
*	WALL02_1    	64	0
*	WALL02_1    	128	56
*	WALL02_1    	128	0
*	W107_1      	0	0
BROWNWEL    		256	72
*	WALL03_4    	0	0
*	WALL03_4    	64	0
*	WALL03_4    	192	0
*	WALL03_3    	128	0
CEMPOIS     		128	128
*	WALL52_1    	0	0
*	PS20A0      	0	28
COMPOHSO    		128	128
*	WALL21_1    	64	-2
*	WALL21_1    	64	70
*	WALL21_3    	0	-2
*	WALL21_5    	0	70
DOORHI      		64	128
*	DOOR2_3     	0	0
*	DOOR2_3     	0	32
*	DOOR2_3     	0	64
*	DOOR2_3     	0	96
GRAYDANG    		64	128
*	W33_7       	0	0
*	W33_7       	0	64
*	PS15A0      	14	72
ICKDOOR1    		64	72
*	WALL00_1    	0	8
*	WALL00_2    	-8	22
*	WALL70_3    	0	0
ICKWALL6    		64	128
*	W32_4       	0	64
*	W32_4       	0	0
*	WALL70_2    	4	0
LITE96      		64	128
*	WALL62_1    	-1	0
*	FLAMP       	4	16
*	FLAMP       	38	1
LITEMET     		128	128
*	WALL03_7    	0	0
*	WALL03_7    	0	64
*	WALL03_7    	64	64
*	WALL03_7    	64	0
*	FLAMP       	19	34
*	FLAMP       	81	34
LITERED     		16	128
*	W15_6       	-4	56
*	W15_6       	-4	0
MIDVINE1    		256	128
*	W106_1      	0	0
MIDVINE2    		256	128
*	W107_1      	0	0
SKINBORD    		64	128
*	HELL6_1     	0	0
*	HELL8_3     	32	0
SKINTEK1    		256	128
*	W109_1      	0	0
*	W109_2      	128	0
SKINTEK2    		256	128
*	W110_1      	0	0
SKULWAL3    		128	128
*	WALL76_1    	-12	0
*	WALL76_1    	116	0
SKULWALL    		128	128
*	WALL79_1    	-4	0
*	WALL79_1    	124	0
ASHWALL     		64	128
*	W104_1      	0	0
BRNBIGC     		128	128
*	W113_1      	0	0
BRNBIGL     		32	128
*	W113_2      	0	0
BRNBIGR     		32	128
*	W113_3      	0	0
BRNPOIS2    		64	128
*	WALL62_1    	0	0
*	PS20A0      	0	56
COMP2       		256	128
*	COMP02_7    	128	64
*	COMP02_6    	0	64
*	COMP02_5    	192	64
*	COMP02_4    	128	0
*	COMP02_3    	192	0
*	COMP02_2    	64	0
*	COMP02_8    	64	64
*	COMP02_1    	0	0
*	STEP08      	0	56
*	STEP08      	32	56
*	STEP08      	64	56
*	STEP08      	96	56
*	STEP08      	128	56
*	STEP08      	160	56
*	STEP08      	192	56
*	STEP08      	224	56
*	STEP08      	224	120
*	STEP08      	192	120
*	STEP08      	160	120
*	STEP08      	128	120
*	STEP08      	96	120
*	STEP08      	64	120
*	STEP08      	32	120
*	STEP08      	0	120
COMPTILE    		128	128
*	COMP03_1    	32	0
*	COMP03_6    	96	0
*	COMP03_6    	96	64
*	COMP03_7    	0	0
*	COMP03_7    	0	64
*	COMP03_1    	32	64
COMPUTE1    		128	128
*	W33_8       	64	56
*	W33_8       	0	56
*	W33_8       	0	120
*	W33_8       	64	120
*	COMP01_5    	28	0
*	COMP01_6    	72	0
*	COMP1B_4    	0	0
*	COMP01_5    	28	64
*	COMP01_1    	0	64
*	COMP1C_6    	72	64
COMPUTE2    		256	56
*	COMP02_2    	64	0
*	COMP02_3    	128	0
*	COMP02_1    	0	0
*	COMP02_7    	192	0
COMPUTE3    		128	128
*	SW11_4      	0	4
*	SW11_5      	32	4
*	SW11_4      	64	4
*	SW11_5      	96	4
*	COMP02_1    	0	0
*	COMP02_2    	64	0
*	STEP08      	0	56
*	STEP08      	32	56
*	STEP08      	64	56
*	STEP08      	96	56
LITE2       		64	128
*	WALL02_2    	0	56
*	WALL02_2    	0	0
*	FLAMP       	5	0
*	FLAMP       	35	0
LITE4       		16	128
*	WLITA0      	0	0
*	WLITA0      	0	8
*	WLITA0      	0	16
*	WLITA0      	0	24
*	WLITA0      	0	32
*	WLITA0      	0	40
*	WLITA0      	0	48
*	WLITC0      	8	48
*	WLITC0      	8	32
*	WLITC0      	8	24
*	WLITC0      	8	40
*	WLITC0      	8	16
*	WLITC0      	8	8
*	WLITC0      	8	0
*	T14_5       	0	56
LITEBLU2    		16	72
*	W13_A       	0	0
LITEBLU3    		16	128
*	W13_8       	0	0
*	W13_8       	0	56
NUKESLAD    		64	128
*	WALL57_1    	0	0
PLANET1     		256	128
*	AG128_1     	192	0
*	AG128_1     	128	0
*	AG128_1     	64	0
*	AG128_1     	0	0
*	TSCRN2      	4	69
*	TSCRN3      	68	69
*	TSCRN4      	132	69
*	TSCRN5      	68	6
*	TSCRN6      	4	6
*	TSCRN8      	132	6
SLADRIP1    		64	128
*	WALL57_2    	0	0
SLADRIP2    		64	128
*	WALL57_3    	0	0
SLADRIP3    		64	128
*	WALL57_4    	0	0
STARTAN1    		64	128
*	SW12_4      	0	0
*	SW12_5      	32	0
STONPOIS    		64	128
*	WALL01_1    	0	0
*	WALL01_2    	16	0
*	WALL01_3    	32	0
*	WALL01_4    	48	0
*	WALL01_4    	48	64
*	WALL01_3    	32	64
*	WALL01_2    	16	64
*	WALL01_1    	0	64
*	PS20A0      	1	42
*	W33_8       	0	120
TEKWALL2    		128	128
*	WALL24_1    	0	0
TEKWALL3    		128	112
*	W17_1       	-104	0
TEKWALL5    		128	128
*	WALL24_1    	-120	-8
ALTAQUA     		128	128
*	ALTAQUA     	0	0
ASPHALT     		256	128
*	ASPHALT     	0	0
BIGMURAL    		256	128
*	BIGMURAL    	0	0
BIGWALL     		128	128
*	BIGWALL     	0	0
BLOD3       		512	128
*	RW48_4      	0	0
*	RW48_4      	64	0
*	DOSW3C      	128	0
*	DOSW3       	200	0
*	DOSLVR13    	272	0
*	DOSLVR23    	344	0
*	DOBLIP3A    	416	0
*	CYAN        	488	0
BRNOPEN     		64	128
*	BRNOPEN     	0	0
BTNTMETL    		64	128
*	WALL47_1    	0	0
*	BLUTNT      	6	40
BTNTSLVR    		64	128
*	RW32_1      	0	0
*	BLUTNT      	6	49
CARLLF1     		128	128
*	CARLLF1     	0	0
CARLLF2     		128	128
*	CARLLF2     	0	0
CARLRT1     		128	128
*	CARLRT1     	0	0
CARLRT2     		128	128
*	CARLRT2     	0	0
CAVERN1     		128	128
*	CAVERN1     	0	0
CAVERN4     		128	128
*	CAVERN4     	0	0
CAVERN5     		64	128
*	CAVERN5     	0	0
CAVERN6     		128	128
*	CAVERN6     	0	0
CAVERN7     		128	128
*	CAVERN7     	0	0
CRBLWDH6    		64	128
*	CRLWDH6     	0	0
*	BLOD64A     	-1	-1
CRBWDH64    		64	128
*	CRWDH6B     	0	0
*	BLOD64A     	-1	9
CRLWDL6B    		64	128
*	CRLWDL6B    	0	0
*	CRWDL6D     	0	64
CRWDL128    		128	128
*	CRWDL12     	0	0
*	CRWDL6      	0	64
*	CRWDL6B     	64	64
CRAWHBP     		128	128
*	BCRATEL1    	0	64
*	BCRATEM1    	40	64
*	BCRATEM1    	32	64
*	BCRATEM1    	48	64
*	BCRATEM1    	56	64
*	BCRATEM1    	96	64
*	BCRATEM1    	88	64
*	BCRATEM1    	80	64
*	BCRATEM1    	72	64
*	BCRATEM1    	64	64
*	BCRATER1    	96	64
*	GCRATEL1    	0	0
*	GCRATER1    	96	0
*	GCRATEM1    	48	0
*	GCRATEM1    	40	0
*	GCRATEM1    	32	0
*	GCRATEM1    	72	0
*	GCRATEM1    	64	0
*	GCRATEM1    	56	0
*	GCRATEM1    	80	0
*	GCRATEM1    	88	0
*	BTNTCRAT    	16	96
*	BTNTCRAT    	16	32
*	BUL64D      	54	0
CR64HBRM    		64	128
*	BCRATEL1    	0	0
*	BCRATER1    	32	0
*	BCRATEL1    	0	64
*	BCRATER1    	32	64
*	BTNTCRAT    	16	32
*	BTNTCRAT    	16	96
*	BUL64A      	0	0
*	BUL64B      	0	64
*	BLOD64B     	0	0
*	ROMERO1     	3	98
CR64HBBP    		64	128
*	BCRATEL1    	0	0
*	BCRATER1    	32	0
*	BCRATEL1    	0	64
*	BCRATER1    	32	64
*	BTNTCRAT    	16	32
*	BTNTCRAT    	16	96
*	BLOD64A     	1	-21
*	BUL64C      	0	0
*	BLOD64B     	0	0
CR64HGBP    		64	128
*	GCRATEL1    	0	0
*	GCRATER1    	32	0
*	GCRATEL1    	0	64
*	GCRATER1    	32	64
*	BTNTCRAT    	16	32
*	BTNTCRAT    	16	96
*	BLOD64A     	0	16
*	BUL64A      	0	0
*	BUL64B      	0	0
CR64SLGB    		64	128
*	SGCRATE2    	0	0
*	SGCRATE2    	32	0
*	BCRATEL1    	0	64
*	BCRATER1    	32	64
*	SMCRATG     	7	15
*	SMCRATG     	38	15
*	SMCRATG     	7	47
*	SMCRATG     	38	47
*	BTNTCRAT    	16	96
CR64HBG     		64	128
*	GCRATEL1    	0	64
*	GCRATER1    	32	64
*	BCRATEL1    	0	0
*	BCRATER1    	32	0
*	BTNTCRAT    	16	96
*	BTNTCRAT    	16	32
CR128LG     		128	64
*	GCRATEL1    	0	0
*	GCRATER1    	96	0
*	GCRATEM1    	48	0
*	GCRATEM1    	40	0
*	GCRATEM1    	32	0
*	GCRATEM1    	72	0
*	GCRATEM1    	64	0
*	GCRATEM1    	56	0
*	GCRATEM1    	80	0
*	GCRATEM1    	88	0
*	BTNTCRAT    	16	32
CR64LB      		64	64
*	BCRATEL1    	0	0
*	BCRATER1    	32	0
*	BTNTCRAT    	16	32
CR64HBB     		64	128
*	BCRATEL1    	0	0
*	BCRATER1    	32	0
*	BCRATEL1    	0	64
*	BCRATER1    	32	64
*	BTNTCRAT    	16	32
*	BTNTCRAT    	16	96
CR64HGB     		64	128
*	GCRATEL1    	0	0
*	GCRATER1    	32	0
*	BCRATEL1    	0	64
*	BCRATER1    	32	64
*	BTNTCRAT    	16	32
*	BTNTCRAT    	16	96
CR64HGG     		64	128
*	GCRATEL1    	0	0
*	GCRATER1    	32	0
*	GCRATEL1    	0	64
*	GCRATER1    	32	64
*	BTNTCRAT    	16	32
*	BTNTCRAT    	16	96
CRBWHBP     		128	128
*	BCRATEL1    	0	64
*	BCRATEM1    	40	64
*	BCRATEM1    	32	64
*	BCRATEM1    	48	64
*	BCRATEM1    	56	64
*	BCRATER1    	96	64
*	BCRATEM1    	88	64
*	BCRATEM1    	80	64
*	BCRATEM1    	72	64
*	BCRATEM1    	64	64
*	GCRATEL1    	0	0
*	GCRATER1    	96	0
*	GCRATEM1    	48	0
*	GCRATEM1    	40	0
*	GCRATEM1    	32	0
*	GCRATEM1    	72	0
*	GCRATEM1    	64	0
*	GCRATEM1    	56	0
*	GCRATEM1    	80	0
*	GCRATEM1    	88	0
*	BTNTCRAT    	16	96
*	BTNTCRAT    	16	32
*	BUL64C      	37	-5
*	BLOD128B    	-2	11
CRSMB       		64	128
*	BCRAT32     	0	0
*	BCRAT32     	32	0
*	SMCRATG     	5	17
*	SMCRATG     	37	17
*	SGCRATE2    	0	32
*	SGCRATE2    	32	32
*	SMCRATG     	5	49
*	SMCRATG     	37	49
*	SMCRATG     	5	81
*	SMCRATG     	37	81
*	BCRAT32     	0	96
*	BCRAT32     	32	96
*	SMCRATG     	5	115
*	SMCRATG     	37	115
CRWDL64A    		64	128
*	CRWDL6B     	0	0
*	CRWDL6B     	0	64
CRWDL64B    		64	128
*	CRWDL6C     	0	0
*	CRWDL6B     	0	64
CRWDL64C    		64	128
*	CRWDL6D     	0	0
*	CRWDL6B     	0	64
CRLWDT3     		32	16
*	CRLWDT3     	0	0
CRWDT32     		64	128
*	CRWDT3      	0	0
*	CRWDT3      	32	0
*	CLWDVS3     	0	16
*	CLWDVS3     	32	16
*	CRWDVS3     	0	40
*	CRWDVS3     	32	40
*	CRWDL6D     	0	64
CRBWLBP     		128	64
*	BCRATEL1    	0	0
*	BCRATEM1    	32	0
*	BCRATEM1    	40	0
*	BCRATEM1    	48	0
*	BCRATEM1    	56	0
*	BCRATEM1    	64	0
*	BCRATEM1    	72	0
*	BCRATEM1    	80	0
*	BCRATEM1    	88	0
*	BCRATER1    	96	0
*	BTNTCRAT    	16	32
*	BUL64B      	28	0
*	BLOD64A     	56	-47
CR128LB     		128	64
*	BCRATEL1    	0	0
*	BCRATEM1    	32	0
*	BCRATEM1    	40	0
*	BCRATEM1    	48	0
*	BCRATEM1    	56	0
*	BCRATEM1    	64	0
*	BCRATEM1    	72	0
*	BCRATEM1    	80	0
*	BCRATEM1    	88	0
*	BCRATER1    	96	0
*	BTNTCRAT    	16	32
CRWDH64     		64	128
*	CRWDH6      	0	0
CRWDH64B    		64	128
*	CRWDH6B     	0	0
CRLWDS6     		64	32
*	CRLWDS6     	0	0
CR128HGB    		128	128
*	BCRATEL1    	0	64
*	BCRATEM1    	40	64
*	BCRATEM1    	32	64
*	BCRATEM1    	48	64
*	BCRATEM1    	56	64
*	BCRATER1    	96	64
*	BCRATEM1    	88	64
*	BCRATEM1    	80	64
*	BCRATEM1    	72	64
*	BCRATEM1    	64	64
*	GCRATEL1    	0	0
*	GCRATER1    	96	0
*	GCRATEM1    	48	0
*	GCRATEM1    	40	0
*	GCRATEM1    	32	0
*	GCRATEM1    	72	0
*	GCRATEM1    	64	0
*	GCRATEM1    	56	0
*	GCRATEM1    	80	0
*	GCRATEM1    	88	0
*	BTNTCRAT    	16	96
*	BTNTCRAT    	16	32
CRAWLBP     		128	128
*	BCRATEL1    	0	0
*	BCRATEM1    	40	0
*	BCRATEM1    	32	0
*	BCRATEM1    	48	0
*	BCRATEM1    	56	0
*	BCRATER1    	96	0
*	BCRATEM1    	88	0
*	BCRATEM1    	80	0
*	BCRATEM1    	72	0
*	BCRATEM1    	64	0
*	BTNTCRAT    	16	32
*	BCRATEM1    	88	64
*	BCRATEM1    	32	64
*	BCRATEL1    	0	64
*	BCRATEM1    	48	64
*	BCRATEM1    	56	64
*	BCRATER1    	96	64
*	BCRATEM1    	40	64
*	BTNTCRAT    	16	96
*	BCRATEM1    	64	64
*	BCRATEM1    	72	64
*	BCRATEM1    	80	64
*	BUL64A      	60	0
*	BLOD128A    	2	-31
CRWDS64     		64	128
*	CRWDS6      	0	0
*	CRLWDL6D    	0	64
*	CRLWDS6     	0	32
*	BLOD64A     	0	2
CRLWDH6B    		64	128
*	CRLWDH6B    	0	0
CRLWDL6     		64	128
*	CRLWDL6     	0	0
*	CRLWDL6D    	0	64
CRLWDL6E    		64	128
*	CRLWDL6E    	0	0
*	CRLWDL6C    	0	64
CRLWDL6C    		64	128
*	CRLWDL6C    	0	0
*	CRLWDL6E    	0	64
CRLWDL6D    		64	128
*	CRLWDL6D    	0	0
*	CRLWDL6B    	0	64
CRTINYB     		64	128
*	BCRAT16     	0	0
*	BCRAT16     	16	0
*	BCRAT16     	32	0
*	BCRAT16     	48	0
*	VGCRATE1    	0	16
*	VGCRATE1    	16	16
*	VGCRATE1    	32	16
*	VGCRATE1    	48	16
*	BCRAT16     	32	32
*	BCRAT16     	48	32
*	VGCRATE1    	0	32
*	VGCRATE1    	16	32
*	BCRAT16     	0	48
*	BCRAT16     	16	48
*	VGCRATE1    	32	48
*	VGCRATE1    	48	48
*	SGCRATE2    	0	64
*	SGCRATE2    	32	64
*	SMCRATG     	7	79
*	SMCRATG     	38	79
*	SMCRATG     	7	111
*	SMCRATG     	38	111
CUBICLE     		128	128
*	RW34_2      	0	0
*	RW34_2      	64	0
*	WLITA0      	3	60
*	WLITC0      	117	60
*	WLITB0      	109	60
*	WLITB0      	11	60
*	WLITC0      	19	60
*	WLITA0      	101	60
*	WLITC0      	52	60
*	WLITB0      	44	60
*	WLITA0      	36	60
*	WLITA0      	68	60
*	WLITB0      	76	60
*	WLITC0      	84	60
CRLWDL12    		128	128
*	CRLWDL12    	0	0
*	CRWDL12     	0	64
CRLWDH6     		64	128
*	CRLWDH6     	0	0
CRBWDL12    		128	128
*	CRWDL12     	0	0
*	CRWDL12     	0	64
*	BLOD64B     	23	-44
CR64LG      		64	128
*	GCRATEL1    	0	0
*	GCRATER1    	32	0
*	BTNTCRAT    	16	32
*	GCRATEL1    	0	64
*	GCRATER1    	32	64
*	BTNTCRAT    	16	96
CRLWDVS     		64	128
*	CLWDVS3     	0	0
*	CLWDVS3     	32	0
*	CRWDL6C     	0	64
*	CRWDT3      	0	24
*	CRWDT3      	32	48
*	CLWDVS3     	0	40
*	CLWDVS3     	32	24
DOC1        		128	128
*	AG128_1     	0	0
*	AG128_1     	64	0
*	REDTNT2     	4	32
DOGRID      		128	128
*	DOGRID      	0	0
DOWINDOW    		64	68
*	DOWINDOW    	0	0
DOGLPANL    		64	128
*	DOGLPANL    	0	0
DOGRMSC     		128	128
*	DOGRMSC     	0	0
DOKGRIR     		128	128
*	DOKGRIR     	0	0
DOPUNK4     		128	128
*	DOPUNK4     	0	0
DRFRONT     		128	128
*	DRFRONT     	0	0
DRSIDE1     		32	128
*	DRSIDE1     	0	0
DRSIDE2     		32	128
*	DRSIDE2     	0	0
DRTOPFR     		128	65
*	DRTOPFR     	0	0
DRTOPSID    		32	65
*	DRTOPSID    	0	0
DORED       		128	128
*	DORED       	0	0
DISASTER    		128	128
*	DOGRNMEN    	0	0
*	DISASTER    	0	32
DOGLDIR     		128	128
*	DOGLDIR     	0	0
DOKODO1B    		64	128
*	DOKODO1B    	0	0
DOKODO2B    		64	128
*	DOKODO2B    	0	0
DOBWIRE     		128	128
*	DOBWIRE     	0	0
DOBWIRE2    		128	128
*	DOBWIRE2    	0	0
EGGREENI    		8	128
*	EGGREENI    	0	0
EGREDI      		8	128
*	EGREDI      	0	0
EGSUPRT3    		16	128
*	WALL42_3    	-4	0
GRNMEN      		128	128
*	DOGRNMEN    	0	0
GRNOPEN     		64	128
*	GRNOPEN     	0	0
LITEGRN1    		32	128
*	GRNLIT1     	0	0
LITERED1    		32	128
*	REDLITE1    	0	0
LITERED2    		8	128
*	REDLITE2    	0	0
LITEYEL1    		32	128
*	YELLITE1    	0	0
LITEYEL2    		8	128
*	YELLITE2    	0	0
LITEYEL3    		128	128
*	YELLITE3    	0	0
LONGWALL    		256	128
*	LONGWALL    	0	0
MURAL1      		128	128
*	MURAL1      	0	0
MURAL2      		128	128
*	MURAL2      	0	0
MTNT1       		128	128
*	MWALL3_1    	0	0
*	MTNT2       	0	0
METAL-BD    		64	128
*	WALL47_1    	0	0
*	BLOD64A     	0	0
METAL-RM    		64	128
*	WALL47_1    	0	0
*	ROMERO1     	4	81
METAL2BD    		64	128
*	RW33_1      	0	0
*	BLOD64B     	0	6
METALDR     		128	128
*	WALL47_1    	0	0
*	WALL47_1    	64	0
*	WALL42_3    	21	0
*	WALL42_3    	85	0
*	W111_3      	0	0
*	W111_3      	0	64
*	W111_3      	64	0
*	W111_3      	64	64
*	SW2_1       	52	37
M_TEC       		256	128
*	RW33_1      	0	0
*	RW33_2      	32	0
*	RW33_3      	96	0
*	RW33_2      	192	0
*	COMP03_5    	160	0
*	COMP04_1    	160	43
*	COMP04_8    	160	86
M_RDOOR     		128	128
*	RW33_1      	0	0
*	RW33_1      	64	0
*	RIPW15      	0	112
*	RIPW15      	0	0
*	W46_38      	13	29
*	W46_38      	45	29
*	W46_38      	77	29
*	W46_38      	109	29
M_YDOOR     		128	128
*	RW33_1      	0	0
*	RW33_1      	64	0
*	RIPW15      	0	0
*	RIPW15      	0	112
*	W46_39      	13	29
*	W46_39      	44	29
*	W46_39      	109	29
*	W46_39      	77	29
PILLAR      		32	128
*	PILLAR      	0	0
PNK4EXIT    		128	128
*	DOPUNK4     	0	0
*	EXIT1       	48	25
REDOPEN     		64	128
*	REDOPEN     	0	0
SLAD2       		512	128
*	DOSHB1      	0	0
*	DOSPI2B     	136	0
*	SMFILLER    	272	0
*	COMP03_4    	276	0
*	COMP03_4    	276	64
*	COMP03_4    	308	0
*	COMP03_4    	308	64
*	SMFILLER    	340	0
*	PREEL1      	283	21
*	PREEL2      	311	21
*	SAW2        	344	0
*	SAW2SD      	416	0
*	PBLAK       	448	0
*	PL_05       	454	2
SLAD3       		512	128
*	DOSHC1      	0	0
*	DOSPI3B     	136	0
*	SMFILLER    	272	0
*	COMP03_4    	276	0
*	COMP03_4    	276	64
*	COMP03_4    	308	0
*	COMP03_4    	308	64
*	SMFILLER    	340	0
*	PREEL4      	283	21
*	PREEL5      	311	21
*	SAW3        	344	0
*	SAW3SD      	416	0
*	PBLAK       	448	0
*	PL_10       	454	2
SLAD4       		512	128
*	DOSHD1      	0	0
*	DOSPI2B     	136	0
*	SMFILLER    	272	0
*	COMP03_4    	276	0
*	COMP03_4    	276	64
*	COMP03_4    	308	0
*	COMP03_4    	308	64
*	SMFILLER    	340	0
*	PREEL3      	283	21
*	PREEL3      	311	21
*	SAW4        	344	0
*	SAW2SD      	416	0
*	PBLAK       	448	0
*	PL_18       	454	2
SLAD5       		512	128
*	DOSHE1      	0	0
*	DOSPI3B     	136	0
*	SMFILLER    	272	0
*	COMP03_4    	276	0
*	COMP03_4    	276	64
*	COMP03_4    	308	0
*	COMP03_4    	308	64
*	SMFILLER    	340	0
*	PREEL3      	283	21
*	PREEL3      	311	21
*	SAW5        	344	0
*	SAW5SD      	416	0
*	PBLAK       	448	0
*	PL_18       	454	2
*	PL_19       	454	2
SLAD6       		512	128
*	DOSHF1      	0	0
*	DOSPI4B     	136	0
*	SMFILLER    	272	0
*	COMP03_4    	276	0
*	COMP03_4    	276	64
*	COMP03_4    	308	0
*	COMP03_4    	308	64
*	SMFILLER    	340	0
*	PREEL2      	283	21
*	PREEL1      	311	21
*	SAW6        	344	0
*	SAW6SD      	416	0
*	PBLAK       	448	0
*	PL_18       	454	2
*	PL_20       	453	4
SLAD7       		512	128
*	DOSHA1      	0	0
*	DOSPI1B     	136	0
*	SMFILLER    	272	0
*	COMP03_4    	276	0
*	COMP03_4    	276	64
*	COMP03_4    	308	0
*	COMP03_4    	308	64
*	SMFILLER    	340	0
*	PREEL2      	283	21
*	PREEL1      	311	21
*	SAW1        	344	0
*	SAW1SD      	416	0
*	PBLAK       	448	0
*	PL_18       	454	2
*	PL_U        	452	20
*	PL_25       	464	6
SLAD8       		512	128
*	DOSHB1      	0	0
*	DOSPI2B     	136	0
*	SMFILLER    	272	0
*	COMP03_4    	276	0
*	COMP03_4    	276	64
*	COMP03_4    	308	0
*	COMP03_4    	308	64
*	SMFILLER    	340	0
*	PREEL7      	283	21
*	PREEL6      	311	21
*	SAW2        	344	0
*	SAW2SD      	416	0
*	PBLAK       	448	0
*	PL_18       	454	2
*	PL_U        	452	20
*	PL_A        	464	20
*	PL_31       	467	2
SLAD9       		512	128
*	DOSHC1      	0	0
*	DOSPI3B     	136	0
*	SMFILLER    	272	0
*	COMP03_4    	276	0
*	COMP03_4    	276	64
*	COMP03_4    	308	0
*	COMP03_4    	308	64
*	SMFILLER    	340	0
*	PREEL3      	283	21
*	PREEL3      	311	21
*	SAW3        	344	0
*	SAW3SD      	416	0
*	PBLAK       	448	0
*	PL_18       	454	2
*	PL_U        	452	20
*	PL_A        	464	20
*	PL_C        	476	20
SLAD10      		512	128
*	DOSHD1      	0	0
*	DOSPI2B     	136	0
*	SMFILLER    	272	0
*	COMP03_4    	276	0
*	COMP03_4    	276	64
*	COMP03_4    	308	0
*	COMP03_4    	308	64
*	SMFILLER    	340	0
*	PREEL3      	283	21
*	PREEL3      	311	21
*	SAW4        	344	0
*	SAW4SD      	416	0
*	PBLAK       	448	0
*	PL_18       	454	2
*	PL_A        	464	20
*	PL_C        	476	20
*	TFOGF0      	452	20
*	TFOGI0      	462	18
SLAD11      		512	128
*	DOSHE1      	0	0
*	DOSPI3B     	136	0
*	SMFILLER    	272	0
*	COMP03_4    	276	0
*	COMP03_4    	276	64
*	COMP03_4    	308	0
*	COMP03_4    	308	64
*	SMFILLER    	340	0
*	PREEL3      	283	21
*	PREEL3      	311	21
*	SAW5        	344	0
*	SAW5SD      	416	0
*	PBLAK       	448	0
*	PL_19       	454	2
*	PL_T        	452	20
*	PL_N        	464	20
*	TFOGF0      	458	20
*	TFOGI0      	476	18
SMGLASS1    		64	128
*	PCWINL      	0	0
SMSTONE6    		128	128
*	PSTON2      	0	0
*	PIVY3       	0	0
STONEW1     		128	128
*	STONEW1     	0	0
STONEW5     		128	128
*	STONEW5     	0	0
SKIRTING    		256	43
*	SKIRTING    	0	0
STWALL      		128	128
*	STWALL      	0	0
TNTDOOR     		128	128
*	DOTNTDR     	0	0
TYIRONLG    		128	128
*	FENCE4      	0	0
TYIRONSM    		64	72
*	FENCE5      	0	0
TYWHEEL1    		128	64
*	TYWHEEL1    	0	0
TYUNDER1    		64	64
*	TYUNDER1    	0	0
WEBL        		128	128
*	DOWEBL      	0	0
WEBR        		128	128
*	DOWEBR      	0	0
YELMETAL    		128	128
*	RW38_1      	0	0
*	RW38_1      	64	0
*	YELTNT      	0	0
A-BRBRK     		128	128
*	BRBRICK     	0	0
A-BRBRK2    		128	128
*	BRBRICK2    	0	0
A-BRICK1    		128	128
*	BRICK1      	0	0
A-BRICK2    		128	128
*	BRICK2      	0	0
A-BRICK3    		128	128
*	BRICK       	0	0
A-BROCK2    		128	128
*	BROCK2      	0	0
A-BROWN1    		128	128
*	BROWN1      	0	0
A-BROWN2    		128	128
*	BROWN2      	0	0
A-BROWN3    		128	128
*	BROWN3      	0	0
A-BROWN4    		128	128
*	BROWN1      	0	0
*	W111_2      	0	0
*	W111_3      	64	64
*	W111_2      	0	64
*	W111_3      	64	0
*	BOSFA0      	47	49
A-BROWN5    		128	128
*	BROWN5      	0	0
A-DBRI1     		128	128
*	DIRBRI1     	0	0
A-DBRI2     		128	128
*	DIRBRI2     	0	0
A-CAMO1     		128	128
*	CAMO1       	0	0
A-CAMO2     		256	128
*	CAMO1       	0	0
*	CAMO1       	128	0
*	W107_1      	0	0
A-CAMO3     		256	128
*	CAMO1       	0	0
*	CAMO1       	128	0
*	W106_1      	0	0
A-CAMO4     		128	128
*	CAMO4       	0	0
A-CAMO5     		128	128
*	CAMO5       	0	0
A-CONCTE    		128	128
*	CONCRETE    	0	0
A-DROCK1    		256	128
*	DARKROCK    	0	0
A-DROCK2    		256	128
*	NATROCK     	0	0
A-GRATE     		128	128
*	GRATE       	0	0
A-MARBLE    		128	128
*	MARBLE1     	0	0
A-MOSBRI    		128	128
*	MOSSBRIK    	0	0
A-MOSROK    		128	128
*	MOSSROCK    	0	0
A-MOSRK2    		128	128
*	MOSROK2     	0	0
A-MOULD     		128	128
*	MOULD       	0	0
A-MUD       		128	128
*	MUD         	0	0
A-MYWOOD    		128	128
*	MYWOOD      	0	0
A-POIS      		64	64
*	POISON      	0	0
A-RAIL1     		64	32
*	RAILING     	0	0
A-ASKIN1    		32	128
*	HELL6_1     	0	0
A-ASKIN2    		32	128
*	HELL8_3     	0	0
A-ASKIN3    		128	128
*	W109_1      	0	0
A-ASKIN4    		128	128
*	W109_2      	0	0
A-ASKIN5    		256	128
*	W110_1      	0	0
A-REDROK    		256	128
*	REDROCK     	0	0
A-ROCK      		128	128
*	ROCK        	0	0
SLIME1      		128	128
*	RW41_1      	0	0
*	RW41_1      	64	0
*	RW9_1       	0	0
*	RW9_1       	64	0
SLIME2      		128	128
*	RW41_1      	0	0
*	RW41_1      	64	0
*	WALL47_1    	0	64
*	WALL47_1    	64	64
SLIME3      		128	128
*	RW41_1      	0	0
*	RW41_1      	64	0
*	W111_3      	0	0
*	W111_3      	64	0
*	W111_3      	0	64
*	W111_3      	64	64
*	PS20A0      	33	51
SLIME4      		128	128
*	RW41_1      	0	0
*	RW41_1      	64	0
*	DUCT1       	16	16
SLIME5      		128	128
*	RW41_1      	0	0
*	RW41_1      	64	0
*	RW33_1      	0	64
*	RW33_1      	64	64
SLIME8      		128	128
*	RW41_1      	0	0
*	RW41_1      	64	0
*	T14_5       	20	32
A-TILE      		128	128
*	TILE        	0	0
A-VINES     		128	128
*	VINES1      	0	0
A-VINE1     		256	128
*	W107_1      	0	0
A-VINE2     		256	128
*	W106_1      	0	0
A-VINE3     		256	128
*	RW1_2       	0	0
*	RW1_2       	64	0
*	RW1_2       	128	0
*	RW1_2       	192	0
*	W107_1      	0	0
A-VINE4     		256	128
*	RW1_2       	0	0
*	RW1_2       	64	0
*	RW1_2       	128	0
*	RW1_2       	192	0
*	W106_1      	0	0
A-WOOD1     		128	128
*	WOOD        	0	0
*	WOOD        	0	64
A-YELLOW    		16	8
*	YELLOW      	0	0
BFALL       		64	128
*	BFALL1      	0	0
AROCK2      		128	128
*	AROCK2      	0	0
AROCK3      		128	128
*	AROCK3      	0	0
AROCK4      		128	128
*	AROCK4      	0	0
AROCK5      		128	128
*	AROCK5      	0	0
SP_DUDE3    		64	128
*	WALL51_1    	0	0
SP_DUDE6    		64	128
*	W108_1      	0	0
SP_ROCK2    		128	128
*	WALL63_2    	0	0
WOODSKUL    		64	128
*	WALL40_1    	0	0
*	SW2_2       	24	70
WFALL       		64	128
*	WFALL1      	0	0
WFALL1      		64	128
*	WFALL1      	0	0
WFALL2      		64	128
*	WFALL2      	0	0
WFALL3      		64	128
*	WFALL3      	0	0
WFALL4      		64	128
*	WFALL4      	0	0
LOGO        		256	128
*	LOGO        	0	0
LOGO4       		256	128
*	LOGO4       	0	0
LOGO3       		256	128
*	LOGO3       	0	0
LOGO5       		64	128
*	LOGO5       	0	0
EXITSGN2    		64	16
*	EXIT_RED    	0	0
*	EXIT_GRN    	32	0
REDWALL1    		128	128
*	W15_5       	64	56
*	W15_4       	0	56
*	W15_4       	0	0
*	W15_5       	64	0
SFALL       		64	128
*	SFALL1      	0	0
LITESTON    		64	128
*	W28_8       	0	64
*	W28_5       	0	0
*	FLAMP       	37	26
*	FLAMP       	7	26
STONGARG    		128	128
*	W28_7       	0	64
*	W28_7       	64	0
*	W28_6       	64	64
*	W28_6       	0	0
*	SW2_3       	0	79
*	SW2_3       	64	15
MC2         		128	128
*	MC2         	0	0
MC3         		128	128
*	MC3         	0	0
MC4         		128	128
*	MC4         	0	0
MC5         		128	128
*	MC5         	0	0
MC6         		128	128
*	MC6         	0	0
MC7         		128	128
*	MC7         	0	0
MC8         		128	128
*	MC8         	0	0
MC10        		128	128
*	MC10        	0	0
MC11        		128	128
*	MC11        	0	0
MC12        		128	128
*	MC12        	0	0
MC13        		128	128
*	MC13        	0	0
MC14        		128	128
*	MC14        	0	0
MC15        		128	128
*	MC15        	0	0
MC16        		128	128
*	MC16        	0	0
MC17        		128	128
*	MC17        	0	0
MC18        		128	128
*	MC18        	0	0
MC19        		128	128
*	MC19        	0	0
P-FRBLU1    		128	128
*	FIREBLU1    	0	0
P-FRBLU2    		128	128
*	FIREBLU2    	0	0
P-SKY1      		256	128
*	SKY1        	0	0
P-SKY2      		1024	128
*	SKY2A       	0	0
*	SKY2B       	256	0
*	SKY2C       	512	0
*	SKY2D       	768	0
P-SKY3      		512	128
*	SKY3A       	0	0
*	SKY3B       	256	0
SW1PSKUL    		64	64
*	SW1SKULL    	0	0
SW2PSKUL    		64	64
*	SW2SKULL    	0	0
T-BLODG1    		512	128
*	RW48_4      	0	0
*	RW48_4      	64	0
*	DOSW1C      	128	0
*	DOSW1       	200	0
*	DOSLVR11    	272	0
*	DOSLVR21    	344	0
*	DOBLIP1A    	416	0
*	CYAN        	488	0
T-BLODG4    		512	128
*	RW48_4      	0	0
*	RW48_4      	64	0
*	DOSW4C      	128	0
*	DOSW4       	200	0
*	DOSLVR14    	272	0
*	DOSLVR24    	344	0
*	DOBLIP4A    	416	0
*	CYAN        	488	0
SW1TSKUL    		512	128
*	RW48_4      	0	0
*	RW48_4      	64	0
*	DOSW2C      	128	0
*	DOSW2       	200	0
*	DOSLVR12    	272	0
*	DOSLVR22    	344	0
*	DOBLIP2A    	416	0
*	CYAN        	488	0
T-WFALL1    		512	128
*	RW48_2      	0	0
*	RW48_2      	64	0
*	DOSWX1C     	128	0
*	DOSWX1      	200	0
*	DOBIGTVA    	272	0
*	DOTV1B      	344	0
*	TYWFALL1    	416	0
*	CYAN        	488	0
SW2TSKUL    		512	128
*	RW48_2      	0	0
*	RW48_2      	64	0
*	DOSWX2C     	128	0
*	DOSWX2      	200	0
*	DOBIGTVB    	272	0
*	DOTV2B      	344	0
*	TYWFALL2    	416	0
*	CYAN        	488	0
FALL3       		512	128
*	RW48_2      	0	0
*	RW48_2      	64	0
*	DOSWX3C     	128	0
*	DOSWX3      	200	0
*	DOBIGTVC    	272	0
*	DOTV3B      	344	0
*	TYWFALL3    	416	0
*	CYAN        	488	0
T-WFALL4    		512	128
*	RW48_2      	0	0
*	RW48_2      	64	0
*	DOSWX4C     	128	0
*	DOSWX4      	200	0
*	DOBIGTVD    	272	0
*	DOTV4B      	344	0
*	TYWFALL4    	416	0
*	CYAN        	488	0
T-SKY1      		1024	128
*	DOEDAY      	0	0
*	DONDAY      	256	0
*	DOWDAY      	512	0
*	DOSDAY      	768	0
T-SKY2      		1024	128
*	DOENITE     	0	0
*	DONNITE     	256	0
*	DOWNITE     	512	0
*	DOSNITE     	768	0
T-SKY3      		1024	128
*	DOEHELL     	0	0
*	DONHELL     	256	0
*	DOWHELL     	512	0
*	DOSHELL     	768	0
T-SLDRP1    		512	128
*	DOSHA1      	0	0
*	DOSPI1B     	136	0
*	SMFILLER    	272	0
*	COMP03_4    	276	0
*	COMP03_4    	276	64
*	COMP03_4    	308	0
*	COMP03_4    	308	64
*	SMFILLER    	340	0
*	PREEL1      	283	21
*	PREEL2      	311	21
*	SAW1        	344	0
*	SAW1SD      	416	0
*	PBLAK       	448	0
*	PL_01       	462	2
PDUMMY      		64	128
*	PDUMMY      	0	0
PRED        		64	128
*	PRED        	0	0
PBLUE       		64	128
*	PBLUE       	0	0
PGREEN      		64	128
*	PGREEN      	0	0
PORAN       		64	128
*	PORAN       	0	0
PWHITE      		64	128
*	PWHITE      	0	0
WATERMAP    		128	128
*	WALL24_1    	0	0
BLOODMAP    		128	128
*	WALL24_1    	0	0
BLUEMAP     		128	128
*	WALL24_1    	0	0
LAVAMAP     		128	128
*	WALL24_1    	0	0
NUKEMAP     		128	128
*	WALL24_1    	0	0
FOGMAP      		128	128
*	WALL24_1    	0	0
MFADEMAP    		128	128
*	WALL24_1    	0	0
DLEVSIGN    		128	128
*	AG128_2     	0	70
*	AG128_2     	64	70
*	DLEVSIGN    	0	0
;End
