Patch File for DeHackEd v3.0

# Note: Use the pound sign ('#') to start comment lines.

Doom version = 19
Patch format = 6

# Original MT_ name is noted in parentheses before new name.

Thing 2 (Possessed -> Stability Officer)
initial frame = 174
first moving frame = 176
injury frame = 187
close attack frame = 0
far attack frame = 184
death frame = 189
exploding frame = 0
respawn frame = 0

Thing 3 (Shotguy -> Enforcer)
initial frame = 207
first moving frame = 209
injury frame = 220
close attack frame = 0
far attack frame = 217
death frame = 222
exploding frame = 0
respawn frame = 0

Thing 9 (Fatso -> Harubus)

Thing 11 (Chainguy -> Ratman)
initial frame = 406
first moving frame = 408
injury frame = 420
close attack frame = 0
far attack frame = 416
death frame = 422
exploding frame = 0
respawn frame = 0

Thing 12 (Trooper -> Wargrin)
initial frame = 674
first moving frame = 676
injury frame = 690
close attack frame = 687
far attack frame = 684
death frame = 692
exploding frame = 692
respawn frame = 696

Thing 13 (Sergeant -> Hindring)

Thing 15 (Head -> Bug)
attack sound = 55  #claw sound
initial frame = 406
first moving frame = 408
injury frame = 422
close attack frame = 419
far attack frame = 416
death frame = 425
exploding frame = 425
respawn frame = 435

Thing 16 (Bruiser -> Outleader)
initial frame = 321
first moving frame = 323
injury frame = 343
close attack frame = 335
far attack frame = 331
death frame = 345
exploding frame = 345
respawn frame = 351

Thing 17 (BruiserShot -> Outleader acidball)

Thing 18 (Knight -> Outleader Lieutennant)
initial frame = 321
first moving frame = 323
injury frame = 343
close attack frame = 335
far attack frame = 331
death frame = 345
exploding frame = 345
respawn frame = 351

Thing 32 (TroopShot -> Wargrin fireball)

Thing 33 (HeadShot -> Bug fireball)

Thing 80 (Misc29 -> Hanging Lamp)
initial frame = 959
bits = SOLID+SPAWNCEILING+NOGRAVITY
  
Thing 81 (Misc30 -> Ceiling Lamp)
initial frame = 963
bits = SOLID+SPAWNCEILING+NOGRAVITY

Thing 99 (Misc48 -> Chair)
bits = SOLID+SHOOTABLE+DROPOFF+NOBLOOD


# Thing and state name are noted in parentheses.

Frame 13 (Pistol1)
Duration = 1
Sprite subnumber = 1

Frame 14 (Pistol2)
Duration = 5
Sprite subnumber = 2

Frame 15 (Pistol3)
Duration = 5
Sprite subnumber = 1

Frame 16 (Pistol4)
Duration = 1
Sprite subnumber = 0


Frame 174 (Stability Officer initial 1)
sprite number = 51
sprite subnumber = 0
duration = 10
next frame = 175  #initial 2

Frame 175 (Stability Officer initial 1)
sprite number = 51
sprite subnumber = 1
duration = 10
next frame = 174  #initial 1

Frame 176 (Stability Officer moving 1)
sprite number = 51
sprite subnumber = 0
duration = 4
next frame = 177  #moving 2

Frame 177 (Stability Officer moving 2)
sprite number = 51
sprite subnumber = 0
duration = 4
next frame = 178  #moving 3

Frame 178 (Stability Officer moving 3)
sprite number = 51
sprite subnumber = 1
duration = 4
next frame = 179  #moving 4

Frame 179 (Stability Officer moving 4)
sprite number = 51
sprite subnumber = 1
duration = 4
next frame = 180  #moving 5

Frame 180 (Stability Officer moving 5)
sprite number = 51
sprite subnumber = 2
duration = 4
next frame = 181  #moving 6

Frame 181 (Stability Officer moving 6)
sprite number = 51
sprite subnumber = 2
duration = 4
next frame = 182  #moving 7

Frame 182 (Stability Officer moving 7)
sprite number = 51
sprite subnumber = 3
duration = 4
next frame = 183  #moving 8

Frame 183 (Stability Officer moving 8)
sprite number = 51
sprite subnumber = 3
duration = 4
next frame = 176  #moving 1

Frame 184 (Stability Officer far attack 1)
sprite number = 51
sprite subnumber = 4
duration = 10
next frame = 185  #far attack 2

Frame 185 (Stability Officer far attack 2)
sprite number = 51
sprite subnumber = 5
duration = 10
next frame = 186  #far attack 3

Frame 186 (Stability Officer far attack 3)
sprite number = 51
sprite subnumber = 32774
duration = 8
next frame = 176  #moving 1

Frame 187 (Stability Officer injury 1)
sprite number = 51
sprite subnumber = 7
duration = 3
next frame = 188  #injury 2

Frame 188 (Stability Officer injury 2)
sprite number = 51
sprite subnumber = 7
duration = 3
next frame = 176  #moving 1

Frame 189 (Stability Officer death 1)
sprite number = 51
sprite subnumber = 8
duration = 5
next frame = 190  #death 2

Frame 190 (Stability Officer death 2)
sprite number = 51
sprite subnumber = 9
duration = 5
next frame = 191  #death 3

Frame 191 (Stability Officer death 3)
sprite number = 51
sprite subnumber = 10
duration = 5
next frame = 192  #death 4

Frame 192 (Stability Officer death 4)
sprite number = 51
sprite subnumber = 11
duration = 5
next frame = 193  #death 5

Frame 193 (Stability Officer death 5)
sprite number = 51
sprite subnumber = 12
duration = 5
next frame = 194  #death 6

Frame 194 (Stability Officer death 6)
sprite number = 51
sprite subnumber = 13
duration = 5
next frame = 195  #death 7

Frame 195 (Stability Officer death 7)
sprite number = 51
sprite subnumber = 14
duration = -1
next frame = 0  #null


Frame 207 (Enforcer initial 1)

Frame 208 (Enforcer initial 2)

Frame 209 (Enforcer moving 1)

Frame 210 (Enforcer moving 2)

Frame 211 (Enforcer moving 3)

Frame 212 (Enforcer moving 4)

Frame 213 (Enforcer moving 5)

Frame 214 (Enforcer moving 6)

Frame 215 (Enforcer moving 7)

Frame 216 (Enforcer moving 8)

Frame 217 (Enforcer far attack 1)

Frame 218 (Enforcer far attack 2)

Frame 219 (Enforcer far attack 3)

Frame 220 (Enforcer injury 1)

Frame 221 (Enforcer injury 2)

Frame 222 (Enforcer death 1)
sprite subnumber = 7
duration = 5
next frame = 223  #death 2

Frame 223 (Enforcer death 2)
sprite subnumber = 8
duration = 5
next frame = 224  #death 3

Frame 224 (Enforcer death 3)
sprite subnumber = 9
duration = 5
next frame = 225  #death 4

Frame 225 (Enforcer death 4)
sprite subnumber = 10
duration = 5
next frame = 226  #death 5

Frame 226 (Enforcer death 5)
sprite subnumber = 11
duration = 5
next frame = 227  #death 6

Frame 227 (Enforcer death 6)
sprite subnumber = 12
duration = -1
next frame = 0  #null


Frame 321 (Outleader initial 1)
duration = 10

Frame 322 (Outleader initial 2)
duration = 10

Frame 323 (Outleader moving 1)
duration = 3

Frame 324 (Outleader moving 2)
duration = 3

Frame 325 (Outleader moving 3)
duration = 3

Frame 326 (Outleader moving 4)
duration = 3

Frame 327 (Outleader moving 5)
duration = 3

Frame 328 (Outleader moving 6)
duration = 3

Frame 329 (Outleader moving 7)
duration = 3

Frame 330 (Outleader moving 8)
duration = 3
next frame = 323  #moving 1

Frame 331 (Outleader close attack 1)
sprite subnumber = 4
duration = 0
next frame = 332  #close attack 2

Frame 332 (Outleader close attack 2)
sprite subnumber = 4
duration = 8
next frame = 333  #close attack 3

Frame 333 (Outleader close attack 3)
sprite subnumber = 5
duration = 8
next frame = 334  #close attack 4

Frame 334 (Outleader close attack 4)
sprite subnumber = 6
duration = 8
next frame = 323  #moving 1

Frame 335 (Outleader far attack 1)

Frame 336 (Outleader far attack 2)

Frame 337 (Outleader far attack 3)

Frame 338 (Outleader far attack 4)

Frame 343 (Outleader injury 1)
sprite subnumber = 10
duration = 2

Frame 344 (Outleader injury 2)
sprite subnumber = 10
duration = 2
next frame = 323  #moving

Frame 356 (Outleader respawn 6)


#FATT frames 362-405 match Harubus sprites without modification


Frame 406 (Ratman initial 1)

Frame 407 (Ratman initial 2)

Frame 408 (Ratman moving 1)

Frame 409 (Ratman moving 2)

Frame 410 (Ratman moving 3)

Frame 411 (Ratman moving 4)

Frame 412 (Ratman moving 5)

Frame 413 (Ratman moving 6)

Frame 414 (Ratman moving 7)

Frame 415 (Ratman moving 8)

Frame 416 (Ratman far attack 1)
sprite number = 38
sprite subnumber = 4
duration = 10
next frame = 417  #attack 2

Frame 417 (Ratman far attack 2)
sprite number = 38
sprite subnumber = 4
duration = 3
next frame = 418  #attack 3

Frame 418 (Ratman far attack 3)
sprite number = 38
sprite subnumber = 32773
duration = 3
next frame = 419  #attack 4

Frame 419 (Ratman far attack 4)
sprite number = 38
sprite subnumber = 4
duration = 1
next frame = 417  #attack 2

Frame 420 (Ratman injury 1)

Frame 421 (Ratman injury 2)

Frame 422 (Ratman  death 1)

Frame 423 (Ratman  death 2)

Frame 424 (Ratman  death 3)

Frame 425 (Ratman  death 4)

Frame 426 (Ratman  death 5)

Frame 427 (Ratman  death 6)
duration = -1
next frame = 0  #null

#SARG frames 475-501 match Hindring sprites without modification


Frame 527 (Droid initial 1)
next frame = 527  #initial 1

Frame 528 (Droid far attack 4)
sprite subnumber = 4
duration = 1
next frame = 538  #attack 2

Frame 529 (Droid moving 1)

Frame 530 (Droid moving 2)

Frame 531 (Droid moving 3)

Frame 532 (Droid moving 4)

Frame 533 (Droid moving 5)

Frame 534 (Droid moving 6)

Frame 535 (Droid moving 7)

Frame 536 (Droid moving 8)

Frame 537 (Droid far attack 1)
sprite subnumber = 4
duration = 10
next frame = 538

Frame 538 (Droid far attack 2)
sprite subnumber = 5
duration = 4
next frame = 539  #attack 3

Frame 539 (Droid far attack 3)
sprite subnumber = 6
duration = 4
next frame = 528  #attack 4

Frame 540 (Droid injury 1)
duration = 3
next frame = 541  #injury 2

Frame 541 (Droid injury 2)
duration = 3
next frame = 529  #moving 1

Frame 542 (Droid death 1)

Frame 543 (Droid death 2)

Frame 544 (Droid death 3)

Frame 545 (Droid death 4)

Frame 546 (Droid death 5)

Frame 547 (Droid death 6)

Frame 548 (Droid death 7)

Frame 549 (Droid respawn 1)

Frame 550 (Droid respawn 2)

Frame 551 (Droid respawn 3)

Frame 552 (Droid respawn 4)

Frame 553 (Droid respawn 5)

Frame 554 (Droid respawn 6)

Frame 555 (Droid respawn 7)


Frame 674 (Wargrin initial 1)

Frame 675 (Wargrin initial 2)

Frame 676 (Wargrin moving 1)

Frame 677 (Wargrin moving 2)

Frame 678 (Wargrin moving 3)

Frame 679 (Wargrin moving 4)

Frame 680 (Wargrin moving 5)

Frame 681 (Wargrin moving 6)

Frame 682 (Wargrin moving 7)

Frame 683 (Wargrin moving 8)

Frame 684 (Wargrin far attack 1)
sprite subnumber = 4
duration = 8

Frame 685 (Wargrin far attack 2)
sprite subnumber = 32773
duration = 8

Frame 686 (Wargrin far attack 3)
sprite subnumber = 6
duration = 6
next frame = 676  #moving 1

Frame 687 (Wargrin close attack 1)
sprite subnumber = 7
duration = 8

Frame 688 (Wargrin close attack 2)
sprite subnumber = 8
duration = 8

Frame 689 (Wargrin close attack 3)
sprite subnumber = 9
duration = 6
next frame = 676  #moving 1

Frame 690 (Wargrin injury 1)
sprite subnumber = 10
duration = 2
next frame = 691  #injury 2

Frame 691 (Wargrin injury 2)
sprite subnumber = 10
duration = 2
next frame = 676  #moving 1

Frame 692 (Wargrin death 1)
sprite subnumber = 11
duration = 8
next frame = 693

Frame 693 (Wargrin death 2)
sprite subnumber = 12
duration = 8
next frame = 694

Frame 694 (Wargrin death 3)
sprite subnumber = 13
duration = 6
next frame = 695

Frame 695 (Wargrin death 4)
sprite subnumber = 14
duration = 6
next frame = 696

Frame 696 (Wargrin death 5)
sprite subnumber = 15
duration = -1
next frame = 0  #null

Frame 697 (Wargrin respawn 1)
sprite subnumber = 15
duration = 8
next frame = 698  #respawn 2

Frame 698 (Wargrin respawn 2)
sprite subnumber = 14
duration = 8
next frame = 699  #respawn 3

Frame 699 (Wargrin respawn 3)
sprite subnumber = 13
duration = 6
next frame = 700  #respawn 4

Frame 700 (Wargrin respawn 4)
sprite subnumber = 12
duration = 6
next frame = 676  #moving 1


Frame 842 (Blue Sphere 1)

Frame 845 (Blue Sphere 4)
next frame = 842  #1


Frame 959 (Hanging Lamp)
duration = -1

Frame 963 (Ceiling Lamp)
duration = -1


[codeptr]
frame 10 = WeaponReady  #Pistol ready
frame 11 = Lower  #Pistol lower
frame 12 = Raise  #Pistol raise
frame 13 = FirePistol  #Pistol 1
frame 14 = Null  #Pistol 2
frame 15 = Null  #Pistol 3
frame 16 = ReFire  #Pistol 4
frame 17 = Light1  #Pistol flash
frame 174 = Look  #Stability Officer initial 1
frame 173 = Look  #Stability Officer initial 2
frame 176 = Chase  #Stability Officer moving 1
frame 177 = Chase  #Stability Officer moving 2
frame 178 = Chase  #Stability Officer moving 3
frame 179 = Chase  #Stability Officer moving 4
frame 180 = Chase  #Stability Officer moving 5
frame 181 = Chase  #Stability Officer moving 6
frame 182 = Chase  #Stability Officer moving 7
frame 183 = Chase  #Stability Officer moving 8
frame 184 = FaceTarget  #Stability Officer attack 1
frame 185 = FaceTarget  #Stability Officer attack 2
frame 186 = PosAttack  #Stability Officer attack 3
frame 187 = Null  #Stability Officer injury 1
frame 188 = Pain  #Stability Officer injury 2
frame 189 = Null  #Stability Officer death 1
frame 190 = Scream  #Stability Officer death 2
frame 191 = Fall  #Stability Officer death 3
frame 192 = Null  #Stability Officer death 4
frame 193 = Null  #Stability Officer death 5
frame 194 = Null  #Stability Officer death 6
frame 195 = Null  #Stability Officer death 7
frame 222 = Null  #Enforcer death 1
frame 223 = Scream  #Enforcer death 2
frame 224 = Fall  #Enforcer death 3
frame 225 = Null  #Enforcer death 4
frame 226 = Null  #Enforcer death 5
frame 227 = Null  #Enforcer death 6
frame 321 = Look  #Outleader initial 1
frame 322 = Look  #Outleader initial 2
frame 323 = Chase  #Outleader moving 1
frame 324 = Chase  #Outleader moving 2
frame 325 = Chase  #Outleader moving 3
frame 326 = Chase  #Outleader moving 4
frame 327 = Chase  #Outleader moving 5
frame 328 = Chase  #Outleader moving 6
frame 329 = Chase  #Outleader moving 7
frame 330 = Chase  #Outleader moving 8
frame 331 = FaceTarget  #Outleader far attack
frame 332 = FaceTarget
frame 333 = FaceTarget
frame 334 = BruisAttack
frame 335 = FaceTarget  #Outleader close attack
frame 336 = SkelWhoosh
frame 337 = FaceTarget
frame 338 = SkelFist
frame 416 = FaceTarget  #Ratman attack 1
frame 417 = FaceTarget  #Ratman attack 2
frame 418 = CPosAttack  #Ratman attack 3
frame 419 = CPosRefire  #Ratman attack 4
frame 528 = CPosRefire  #Droid far attack 4
frame 537 = FaceTarget  #Droid far attack 1
frame 538 = CPosAttack
frame 539 = CPosAttack
frame 548 = Null  #Droid death 7
frame 676 = Chase  #Wargrin moving
frame 677 = Chase
frame 678 = Chase
frame 679 = Chase
frame 680 = Chase
frame 681 = Chase
frame 682 = Chase
frame 683 = Chase
frame 684 = FaceTarget  #Wargin far attack
frame 685 = FaceTarget
frame 686 = TroopAttack
frame 687 = FaceTarget  #Wargrin close attack
frame 688 = FaceTarget
frame 689 = TroopAttack
frame 690 = Null  #Wargrin injury
frame 691 = Pain
frame 692 = Null  #Wargrin death
frame 693 = Scream
frame 694 = Null
frame 695 = Fall
frame 696 = Null
frame 697 = Null  #Wargrin respawn
frame 698 = Null
frame 699 = Null
frame 670 = Null
frame 738 = PosAttack
frame 740 = PosAttack
frame 749 = Null  #Stability Officer death 6
frame 750 = Null  #Stability Officer death 7
frame 751 = Null  #Stability Officer respawn 1


[strings]
CC_ZOMBIE = Stability Officer
CC_SHOTGUN = Enforcer
CC_HEAVY = Ratman
CC_IMP = Wargrin
CC_DEMON = Hindring
CC_LOST = Grell
CC_CACO = Bug
CC_HELL = Outcast
CC_BARON = Outleader
CC_ARACH = Droid
CC_PAIN = ?
CC_REVEN = Bionic Monkey
CC_MANCU = Harubus
CC_ARCH = ?
CC_SPIDER = Super Droid
CC_CYBER = Super Wargrin
CC_HERO = ?
