Ammo 0 (Bullets)
Max ammo = 99
Per ammo = 8

Ammo 1 (Magazines)
Max ammo = 99
Per ammo = 8

Ammo 2 (Grenades)
Max ammo = 0

Ammo 3 (Rockets)
Max ammo = 0

Frame 18 (Machine Gun bobbing frame 1)
sprite number = 1
sprite subnumber = 0
duration = 1
next frame = 18

Frame 19 (Machine Gun select frame 2)
sprite number = 1
sprite subnumber = 0
duration = 1
next frame = 19

Frame 20 (Machine Gun deselect frame 3)
sprite number = 1
sprite subnumber = 0
duration = 1
next frame = 20

Frame 21 (Machine Gun shooting frame 4)
sprite number = 1
sprite subnumber = 0  #2
duration = 2
next frame = 22

Frame 22 (Machine Gun shooting frame 5)
sprite number = 1
sprite subnumber = 0  #3
duration = 2
next frame = 23

Frame 23 (Machine Gun shooting frame 6)
sprite number = 1
sprite subnumber = 0  #4
duration = 2
next frame = 24

Frame 24 (Machine Gun shooting frame 7)
sprite number = 1
sprite subnumber = 0  #1
duration = 2
next frame = 18

Frame 25 (Machine Gun firing frame 8)
sprite number = 5
sprite subnumber = 0
duration = 3
next frame = 1

Weapon 0 (Knife)

Weapon 1 (Handgun)

Weapon 2 (Machine Gun)
bobbing frame = 18
select frame = 19
deselect frame = 20
shooting frame = 21
firing frame = 25

Weapon 3 (Gatling Gun)

Weapon 4 (Grenade Launcher)

Weapon 5 (Missile Launcher)

Weapon 8 (Machine Gun)
bobbing frame = 18
select frame = 19
deselect frame = 20
shooting frame = 21
firing frame = 25

[codeptr]
frame 18 = WeaponReady
frame 19 = Lower
frame 20 = Raise
frame 21 = Null
frame 22 = FirePistol
frame 23 = Null
frame 24 = ReFire
frame 25 = Light1
