[flats]
flat1
flat2
flat3
flat4

[levels]
map01

[lumps]
dehacked

[patches]
wall1

[sprites]
eleca1	64	125
eleca2	64	125
eleca3	64	125
eleca4	64	125
eleca5	64	125
eleca6	64	125
eleca7	64	125
eleca8	64	125

[texture1]
texture1

[texture2]
texture2
